{
  "12": {
    "0": [
      0.045339041948487244,
      0.00023465344283612997,
      0.0018742930694222984,
      [
        -9.379185047064809e-06,
        -0.00023020627840044522,
        -0.0013081779647833996,
        -0.0013223320395469862,
        -1.475797262173728e-11
      ]
    ],
    "1": [
      0.8551591329046528,
      0.0052800033079180445,
      0.017558186280781412,
      [
        7.246454870346586e-05,
        -0.014362895311967883,
        -0.006096990361061483,
        0.00805100000958725,
        1.5136389919234716e-09
      ]
    ],
    "2": [
      0.8743696677988747,
      0.005682805944961958,
      0.0080998893761536,
      [
        3.83746566220422e-05,
        -0.0073648681056790455,
        -0.002346040638236957,
        0.0024210630725657323,
        2.4414057442356807e-09
      ]
    ],
    "3": [
      0.9202954162291824,
      0.007191489645603304,
      0.0026259090024486707,
      [
        2.073554397552524e-05,
        -0.0026151090483441664,
        -0.00022047603566155427,
        -8.696613891190363e-05,
        2.683450683882427e-09
      ]
    ],
    "4": [
      0.9764478426687241,
      0.00759832646043968,
      0.00332293674769221,
      [
        5.111843730754018e-06,
        0.0020100588207040415,
        0.001181702819440078,
        -0.002367514410104854,
        2.625358819230428e-10
      ]
    ],
    "5": [
      1.0243960979973354,
      0.007925844520163853,
      0.006915483595572556,
      [
        -1.921586685615928e-05,
        0.0053455942513824795,
        0.0023656264470958144,
        -0.003694858281909519,
        -9.281505786162825e-09
      ]
    ],
    "6": [
      1.2416928352625891,
      0.005680793921166826,
      0.019624576228356717,
      [
        -0.00010131225849252523,
        0.017759566289185624,
        0.00548383314820855,
        -0.006295959592586442,
        -3.476500198829058e-09
      ]
    ]
  }
}