{
  "16": {
    "0": [
      0.07413360957375151,
      0.00027671707156953876,
      0.00434308296269509,
      [
        -7.094762697196222e-06,
        -0.00013234755084538807,
        -0.002254856901842933,
        -0.0037095045172086116,
        -2.425832312802356e-10
      ]
    ],
    "1": [
      0.8695402775332773,
      0.004831644688765093,
      0.018497774325510127,
      [
        -1.5166597538418536e-05,
        -0.012315404729676072,
        -0.0037328160514460418,
        0.013287750586240765,
        4.234903316913119e-09
      ]
    ],
    "2": [
      0.8729636943846415,
      0.006028805624531703,
      0.007228114511739347,
      [
        -2.469867743215559e-06,
        -0.006422424773506297,
        -0.0011637864470226411,
        0.003105429829982187,
        2.4667677900325202e-09
      ]
    ],
    "3": [
      0.9348044027298166,
      0.007963956944695084,
      0.0023367707111387115,
      [
        4.947027379742508e-06,
        -0.0016827114684597744,
        0.00020178657204039663,
        -0.0016087999181386703,
        -3.311394936034162e-09
      ]
    ],
    "4": [
      0.9969854637905619,
      0.008328853812594022,
      0.0047694917408993166,
      [
        -1.1177598786549225e-06,
        0.002557354857821381,
        0.0007982180136540951,
        -0.0039459896541899075,
        -1.165707419481521e-09
      ]
    ],
    "5": [
      1.0335872002171043,
      0.008647577481344525,
      0.008020503265511106,
      [
        -1.33972429259277e-05,
        0.006235852765149152,
        0.0014591914165738018,
        -0.004828373830505717,
        4.782052420715388e-09
      ]
    ],
    "6": [
      1.1098433998274484,
      0.009205301357832723,
      0.011266453860662993,
      [
        9.914380569853165e-06,
        0.008049663605697699,
        0.0022084010146981026,
        -0.007566952166684127,
        2.5877173737143266e-09
      ]
    ],
    "7": [
      1.2085244736314753,
      0.009522568373121845,
      0.015834218867376553,
      [
        2.094528595897316e-05,
        0.012367824027781582,
        0.003184967338708322,
        -0.009360286336654644,
        2.4149637845027883e-09
      ]
    ],
    "8": [
      1.2859389846961147,
      0.00972122625824886,
      0.022586866925462464,
      [
        2.6009274828986406e-05,
        0.01792594650250745,
        0.003982671158919926,
        -0.013151602695306908,
        1.0837496677851277e-08
      ]
    ]
  }
}