{
  "12": {
    "1": [
      0.2985831576496367,
      0.002022193082940397,
      0.0068967813434309974,
      [
        -0.0001587270683545139,
        0.0068949545768532405
      ]
    ],
    "2": [
      0.16206969258331713,
      0.0018320302046669929,
      0.0013626263491623568,
      [
        7.743086522460363e-06,
        -0.0013626043490473083
      ]
    ],
    "3": [
      0.1036921455204868,
      0.0016661409217583246,
      0.0013269811336046242,
      [
        2.2781380264721984e-05,
        -0.0013267855658153083
      ]
    ],
    "4": [
      0.0972485157531602,
      0.0019466162174221332,
      0.0018529492566171089,
      [
        2.650376154944567e-05,
        -0.0018527596979159566
      ]
    ],
    "5": [
      0.09167415366054482,
      0.0020522653383171874,
      0.0007343770398849899,
      [
        2.7979184569426607e-05,
        -0.0007338438539233466
      ]
    ],
    "6": [
      0.2467323348328543,
      0.00462918146968608,
      0.0016206386592272429,
      [
        7.371965544841763e-05,
        -0.0016189611101513346
      ]
    ]
  }
}