{
  "15": {
    "1": [
      0.3117316643415394,
      0.0018828839981696354,
      0.001553639501529921,
      [
        -0.00015639497101732625,
        0.0015457478169981775
      ]
    ],
    "2": [
      0.1687983281275513,
      0.0017541188753287093,
      0.0003230262647909849,
      [
        9.804134484481253e-06,
        -0.0003228774484101138
      ]
    ],
    "3": [
      0.10258199961907082,
      0.001564611019227356,
      0.0009428107429929089,
      [
        2.3628982403600673e-05,
        -0.0009425145984510858
      ]
    ],
    "4": [
      0.09501337953293312,
      0.0018151045977498313,
      0.00046600823264948075,
      [
        2.688327006031277e-05,
        -0.00046523215998892087
      ]
    ],
    "5": [
      0.08663225903325765,
      0.0019199650611676877,
      0.00021600670179486477,
      [
        2.7457265209890336e-05,
        -0.00021425450708792426
      ]
    ],
    "6": [
      0.07824219965562412,
      0.0019178900589590512,
      0.0002786879379961094,
      [
        2.8814910700267204e-05,
        0.000277194277909662
      ]
    ],
    "7": [
      0.07830028662606925,
      0.00212391015808406,
      5.1225799379342314e-05,
      [
        2.3202950302489422e-05,
        4.566952615599196e-05
      ]
    ],
    "8": [
      0.07869988306395431,
      0.0022166792900859106,
      7.805347057157904e-05,
      [
        1.660345785625683e-05,
        7.626709287421318e-05
      ]
    ]
  }
}