{
  "17": {
    "1": [
      0.31462993857119104,
      0.0012436669417129826,
      0.0016557892702002764,
      [
        -0.00015486030905331738,
        0.0016485315865916172
      ]
    ],
    "2": [
      0.16429970408894834,
      0.0013250162034823458,
      0.00032328080172393725,
      [
        1.0933331245882583e-05,
        -0.000323095866626516
      ]
    ],
    "3": [
      0.10053103075768942,
      0.0012159790176969553,
      0.00043780012068746714,
      [
        2.4013276560139185e-05,
        -0.0004371410621559213
      ]
    ],
    "4": [
      0.09405641917053377,
      0.0014537302275941882,
      0.0005843476261100424,
      [
        2.742614780600061e-05,
        -0.0005837036530269152
      ]
    ],
    "5": [
      0.32648290741163744,
      0.0037817548732216426,
      0.00031832314985851445,
      [
        9.248755344126725e-05,
        -0.0003045910047823064
      ]
    ]
  }
}