{
  "11": {
    "0": [
      0.039267251512580426,
      0.00034567019981518866,
      0.006405825250350625,
      [
        1.8813294040617712e-06,
        -5.5627268930873164e-05,
        -0.0004742144813003474,
        -0.006388005935446958,
        3.0252939042796356e-10
      ]
    ],
    "1": [
      0.7885121768625397,
      0.010346947269855716,
      0.018352277599895613,
      [
        -8.549971669402634e-05,
        -0.016093456793383476,
        -0.003767939257291353,
        -0.007975090287572595,
        -1.6488033161010662e-09
      ]
    ],
    "2": [
      0.8435909835989354,
      0.013265140210135274,
      0.010346675553840782,
      [
        1.4892694382262484e-05,
        -0.009489342469311657,
        -0.000738860766766436,
        0.004057084851397885,
        -1.0476467360298614e-08
      ]
    ],
    "3": [
      0.9379025322504868,
      0.017570952336195936,
      0.0015513432505307294,
      [
        -2.601834959903293e-05,
        9.119026243531447e-05,
        -0.000843678427916883,
        0.001298414407162829,
        5.297759564371063e-09
      ]
    ],
    "4": [
      0.9842601669519992,
      0.018403449069652418,
      0.0036049361546558185,
      [
        4.673301404867214e-05,
        0.0034498854133325763,
        0.0009523052250798303,
        -0.0004298675348912706,
        -1.2242567293263562e-08
      ]
    ],
    "5": [
      1.0521041698310085,
      0.019266485549882334,
      0.009918065530532566,
      [
        1.4839819227008277e-05,
        0.009526839021151368,
        0.0014623451264349496,
        0.0023385227482238813,
        1.6017163151360592e-09
      ]
    ],
    "6": [
      1.294576752660091,
      0.01170393141059228,
      0.018051870470580853,
      [
        6.882500638005773e-05,
        0.017424311072496534,
        0.0030277800980473835,
        0.0036181793669709528,
        -1.7154273335151515e-08
      ]
    ]
  }
}