{
  "16": {
    "0": [
      0.07515367433842547,
      0.0002777157242422951,
      0.005861732133003956,
      [
        -7.063308048338435e-06,
        -7.920747568319897e-05,
        -0.0022514711000199694,
        -0.005411511597542898,
        -4.679710785548963e-11
      ]
    ],
    "1": [
      0.8660153055540539,
      0.004860464910262473,
      0.01995187239331508,
      [
        -2.185387490138968e-05,
        -0.013989590431912058,
        -0.0038076868046887924,
        0.013706553729950999,
        3.0713342979993286e-10
      ]
    ],
    "2": [
      0.8770232509162351,
      0.006139827530535404,
      0.006928151042231632,
      [
        3.879399488537771e-06,
        -0.006665310384254108,
        -0.0010552122024745092,
        0.0015682558794776202,
        4.687710108974841e-09
      ]
    ],
    "3": [
      0.9454025928679052,
      0.00808346904836296,
      0.0027451526948545526,
      [
        2.751943564027748e-06,
        -0.00039358333639338827,
        1.166285710874071e-05,
        -0.0027167649659012305,
        -1.7400431095992985e-09
      ]
    ],
    "4": [
      0.9842304697971416,
      0.008381744461975506,
      0.005967130374555136,
      [
        3.934062566823826e-07,
        0.0025601508773923642,
        0.0007803858571775457,
        -0.005333223242193541,
        1.0155687402146896e-09
      ]
    ],
    "5": [
      1.0389294155490512,
      0.008769940757205509,
      0.008691512520401365,
      [
        -2.8377203764584635e-07,
        0.005581820851980002,
        0.0016266521327951144,
        -0.006460624476551491,
        5.0253137207079135e-09
      ]
    ],
    "6": [
      1.114798214501138,
      0.009324796714680696,
      0.012666844961774585,
      [
        7.884349867204321e-06,
        0.00978170166985981,
        0.0023471173613431873,
        -0.007697938143204297,
        -2.2202046867647596e-09
      ]
    ],
    "7": [
      1.208144009327764,
      0.009653390267936917,
      0.01606409143592012,
      [
        2.5479780142445563e-05,
        0.01344871407674364,
        0.0030890302615682597,
        -0.008224619515058817,
        5.7116529283973705e-09
      ]
    ],
    "8": [
      1.28897287367602,
      0.010040210361784528,
      0.022224129165763384,
      [
        2.025855348675165e-05,
        0.01992332731543356,
        0.004123758177227321,
        -0.008942435571217322,
        4.716337764776313e-09
      ]
    ]
  }
}