{
  "18": {
    "0": [
      27483.31,
      360.52,
      538.42
    ],
    "1": [
      9504.77,
      252.57136444434775,
      404.43769780706594
    ],
    "2": [
      4373.9,
      77.71,
      102.98
    ],
    "3": [
      2590.85,
      58.62,
      42.01
    ],
    "4": [
      2348.11,
      55.69,
      57.93
    ],
    "5": [
      2189.01,
      54.32,
      60.26
    ],
    "6": [
      6476.67,
      91.1,
      129.81
    ]
  }
}