{
  "17": {
    "0": [
      24302.98,
      354.36,
      392.99
    ],
    "1": [
      8356.899999999998,
      252.28186161042197,
      278.32859661289723
    ],
    "2": [
      3876.29,
      73.23,
      70.95
    ],
    "3": [
      2331.01,
      55.35,
      65.47
    ],
    "4": [
      2139.46,
      52.62,
      56.61
    ],
    "5": [
      1897.36,
      48.59,
      47.62
    ],
    "6": [
      5701.96,
      84.79,
      110.76
    ]
  }
}