{
  "12": {
    "0": [
      10322.14,
      201.26,
      118.23
    ],
    "1": [
      0.305561637412397,
      0.021825031797606257,
      0.01326173570712401
    ],
    "2": [
      0.17046077654439876,
      0.004496182222307032,
      0.002438262334914645
    ],
    "3": [
      0.09918582774502187,
      0.003412356205769467,
      0.0020491756680203164
    ],
    "4": [
      0.09884190681389712,
      0.003438823400567315,
      0.002256124852890662
    ],
    "5": [
      0.08659250891772444,
      0.0030974904862832386,
      0.0021246594501564747
    ],
    "6": [
      0.2393573425665608,
      0.005091997717780075,
      0.0033845019867311007
    ]
  }
}