{
  "12": {
    "0": [
      4021.22,
      119.95,
      27.76
    ],
    "1": [
      0.35227368808471055,
      0.03237801711770444,
      0.005681565191381227
    ],
    "2": [
      0.1729126981363865,
      0.0071812096325457805,
      0.0010872804016031328
    ],
    "3": [
      0.09676167929135934,
      0.005566962441237195,
      0.0006403035179634037
    ],
    "4": [
      0.08016969974286411,
      0.00513552901654048,
      0.0008231307984791334
    ],
    "5": [
      0.08233322225593227,
      0.005051634991465939,
      0.001194247287553174
    ],
    "6": [
      0.06662405936506832,
      0.004412822163217675,
      0.0005274302802330176
    ],
    "7": [
      0.0794460387643551,
      0.0052960465328589605,
      0.0005368841577081373
    ],
    "8": [
      0.06947891435932378,
      0.004616573026287214,
      0.0004662480026220155
    ]
  }
}