{
  "12": {
    "0": [
      4019.89,
      131.21,
      26.43
    ],
    "1": [
      0.3525370097191715,
      0.03401407672683935,
      0.0055264689566627955
    ],
    "2": [
      0.1729674195065039,
      0.007333794296218307,
      0.001040762196138756
    ],
    "3": [
      0.09679369335976856,
      0.0056287313596522885,
      0.0006084231278163307
    ],
    "4": [
      0.08019373664453505,
      0.005181300671699348,
      0.0008131393058464694
    ],
    "5": [
      0.0823306110366204,
      0.0051005024239711904,
      0.0011698927508511472
    ],
    "6": [
      0.21517752973340068,
      0.00798895576845657,
      0.001254729431818517
    ]
  }
}