{
  "18": {
    "0": [
      0.52925556009,
      0.0034996429118,
      0.00170201999592
    ],
    "1": [
      0.691971429047,
      0.00866184161038,
      0.000252857095259
    ],
    "2": [
      0.61415,
      0.0105358910397,
      0.0002
    ],
    "3": [
      0.545439489584,
      0.0117731686493,
      0.00119699702408
    ],
    "4": [
      0.501586928663,
      0.0108180405275,
      0.00254934643315
    ],
    "5": [
      0.460016223721,
      0.0100379288634,
      0.00185874313059
    ],
    "6": [
      0.408311979373,
      0.0050189644317,
      0.00293183653049
    ]
  }
}