{
  "12": {
    "0": [
      0.5208,
      0.00296984848098,
      0.00162409288824
    ],
    "1": [
      0.672134878409,
      0.00724758581315,
      5.85351925009e-06
    ],
    "2": [
      0.6048,
      0.00898025612107,
      0.00085
    ],
    "3": [
      0.557089977254,
      0.010216041545,
      0.00115938901839
    ],
    "4": [
      0.507168086249,
      0.00940133065509,
      0.00156516809933
    ],
    "5": [
      0.465091810548,
      0.00862583337096,
      0.00190327846826
    ],
    "6": [
      0.396106837107,
      0.00413612141568,
      0.00280341855369
    ]
  }
}