{
  "15": {
    "0": [
      0.52205,
      0.00502045814642,
      0.00145
    ],
    "1": [
      1.3086869073843501,
      0.012201601858843107,
      0.0019550034318461976
    ],
    "2": [
      1.1602741582300546,
      0.018025030870095424,
      0.0012002640473586425
    ],
    "3": [
      1.0709924137151612,
      0.02287198135697672,
      0.0014364130133378344
    ],
    "4": [
      0.9679230117153529,
      0.02033995581060488,
      0.002098912217187507
    ],
    "5": [
      0.8655219633655781,
      0.018621419086324777,
      0.0018144035242660436
    ],
    "6": [
      0.7837872234345369,
      0.006074491634839893,
      0.0013562609417870353
    ]
  }
}