{
  "18": {
    "1": [
      0.2966449809502125,
      0.001229284646664211,
      0.0008232268135782109,
      [
        -0.00015053176980411864,
        0.0008093470039938211
      ]
    ],
    "2": [
      0.16392916494248783,
      0.0012560406827828178,
      0.0006975811316664136,
      [
        5.617696966803143e-06,
        -0.0006975585113363492
      ]
    ],
    "3": [
      0.10244733688078024,
      0.0011520585592381784,
      0.00036338930013445704,
      [
        2.153939396735971e-05,
        -0.00036275037968240553
      ]
    ],
    "4": [
      0.09627315998178919,
      0.001342864913741995,
      0.00019105182730772496,
      [
        2.5066968119810684e-05,
        -0.00018940023185545773
      ]
    ],
    "5": [
      0.0895864186781579,
      0.0013841968132990601,
      9.70504682541773e-05,
      [
        2.6352401590587493e-05,
        -9.340419861421367e-05
      ]
    ],
    "6": [
      0.2511189385665723,
      0.003334428699539693,
      0.000538594511862149,
      [
        7.195530915954373e-05,
        0.0005337663174946328
      ]
    ]
  }
}