{
  "16": {
    "1": [
      0.31222596060500224,
      0.0012525578854918429,
      0.0009830252923053772,
      [
        -0.0001540911027811953,
        0.0009708731417418792
      ]
    ],
    "2": [
      0.16420550017289806,
      0.0012295152493117724,
      0.000303585227380315,
      [
        7.397292521971188e-06,
        -0.0003034950911413592
      ]
    ],
    "3": [
      0.10117846834323999,
      0.0011072857252940034,
      0.00035602740511468667,
      [
        2.2496958137371847e-05,
        -0.00035531591586539235
      ]
    ],
    "4": [
      0.0951506411284828,
      0.0012932090499656736,
      0.00017646218930755157,
      [
        2.58223185667511e-05,
        -0.00017456263093529323
      ]
    ],
    "5": [
      0.08928984386752827,
      0.001341537868762894,
      7.150251267926579e-05,
      [
        2.7333827339770522e-05,
        -6.607171257359823e-05
      ]
    ],
    "6": [
      0.23794958588284867,
      0.0030976966779505326,
      0.00010074081247950944,
      [
        7.104070621535841e-05,
        -7.142779122620846e-05
      ]
    ]
  }
}