{
  "18": {
    "1": [
      0.2965891940399602,
      0.0011014268090814806,
      0.0007174212726883588,
      [
        -0.00014685972530154023,
        0.0007022289538249904
      ]
    ],
    "2": [
      0.16389832581828043,
      0.0012108485773732072,
      0.0007569878338640402,
      [
        7.619101433736786e-06,
        -0.0007569494896698947
      ]
    ],
    "3": [
      0.10242806966405875,
      0.001130020971612942,
      0.0004005105428687987,
      [
        2.279347827541245e-05,
        -0.0003998614163646802
      ]
    ],
    "4": [
      0.09625506222576287,
      0.0013260686956267271,
      0.00022577097852563368,
      [
        2.626037710359852e-05,
        -0.0002242385500729055
      ]
    ],
    "5": [
      0.3408293482519378,
      0.0035001850068442277,
      0.0006847853149196074,
      [
        9.018676848882023e-05,
        0.0006788205022825178
      ]
    ]
  }
}