{
  "16": {
    "1": [
      0.31212224205937417,
      0.0011224382585947564,
      0.0008590072195326421,
      [
        -0.00015042197766429455,
        0.0008457343742835355
      ]
    ],
    "2": [
      0.16415094194207164,
      0.0011833111533286608,
      0.0003694786152069194,
      [
        9.299686140273877e-06,
        -0.0003693615612552492
      ]
    ],
    "3": [
      0.10114485952439033,
      0.0010850613201511298,
      0.0003966190457972228,
      [
        2.3671162147534397e-05,
        -0.00039591204019540083
      ]
    ],
    "4": [
      0.09511903975516404,
      0.0012762031090297998,
      0.00021442293727585982,
      [
        2.6932537287721603e-05,
        -0.00021272478573323983
      ]
    ],
    "5": [
      0.3274629167189998,
      0.0033143090629787595,
      0.00016027284430692276,
      [
        9.05185920887508e-05,
        0.0001322640129003405
      ]
    ]
  }
}