{
  "17": {
    "1": [
      0.30770200133139436,
      0.0015815389304789382,
      0.0009583662043843725,
      [
        -0.00015233464080732784,
        0.0009461817684336404
      ]
    ],
    "2": [
      0.16364573762503404,
      0.0013657925882002483,
      0.0006388961679945817,
      [
        7.599539925573495e-06,
        -0.0006388509689051747
      ]
    ],
    "3": [
      0.10158341139684975,
      0.0011869070559115465,
      0.0001726086154741246,
      [
        2.2628643778985214e-05,
        -0.00017111890198519275
      ]
    ],
    "4": [
      0.09454210583859496,
      0.0013603591624459749,
      0.00024526815615060637,
      [
        2.579808156542851e-05,
        -0.0002439076206457308
      ]
    ],
    "5": [
      0.08897112887568243,
      0.0014041624926717242,
      2.78636592307625e-05,
      [
        2.7246995271623664e-05,
        5.829644448521187e-06
      ]
    ],
    "6": [
      0.08131310007887821,
      0.001396162755701214,
      7.115518376804377e-05,
      [
        2.907327545539906e-05,
        6.494462896466935e-05
      ]
    ],
    "7": [
      0.08259599798692512,
      0.0015819424188488315,
      6.669755217264679e-05,
      [
        2.380198607963846e-05,
        6.230593009086405e-05
      ]
    ],
    "8": [
      0.07964651686664113,
      0.0016005306692196992,
      3.010585133860616e-05,
      [
        1.6186118730665555e-05,
        -2.53844804015968e-05
      ]
    ]
  }
}