{
  "17": {
    "1": [
      0.315072632312307,
      0.0013421252384635902
    ],
    "2": [
      0.16758646248839107,
      0.0014113745097524726
    ],
    "3": [
      0.10243638314446665,
      0.0012810957976495717
    ],
    "4": [
      0.09448990078427129,
      0.0015303048267906886
    ],
    "5": [
      0.08605906628394581,
      0.0016125649533786297
    ],
    "6": [
      0.2343555549866182,
      0.0039031358704800572
    ]
  }
}