{
  "16": {
    "0": [
      652036.0668945312,
      807.4875026243634
    ],
    "1": [
      204125.212890625,
      451.8021833619499
    ],
    "2": [
      107488.287109375,
      327.854063737778
    ],
    "3": [
      64863.06201171875,
      254.6822765952094
    ],
    "4": [
      60989.314453125,
      246.9601474998041
    ],
    "5": [
      214570.1904296875,
      463.2172173286389
    ]
  }
}