{
  "16": {
    "0": [
      651990.2456054688,
      807.4591293715545
    ],
    "1": [
      204282.595703125,
      451.97632206026566
    ],
    "2": [
      107513.41015625,
      327.8923758739291
    ],
    "3": [
      64866.68896484375,
      254.68939704048097
    ],
    "4": [
      60989.740234375,
      246.9610095427515
    ],
    "5": [
      57394.188232421875,
      239.5708417825965
    ],
    "6": [
      53121.185302734375,
      230.48033604352102
    ],
    "7": [
      53242.197509765625,
      230.74270846500355
    ],
    "8": [
      50580.239501953125,
      224.90051023053087
    ]
  }
}