{
  "17": {
    "1": [
      0.3081367742566684,
      0.0013053832445346584
    ],
    "2": [
      0.1635955083377796,
      0.0012763753867646229
    ],
    "3": [
      0.10060419955826709,
      0.0011335586243452337
    ],
    "4": [
      0.09398920201807139,
      0.0013242820261448825
    ],
    "5": [
      0.08752242316942369,
      0.0013547899061947942
    ],
    "6": [
      0.24615189265978982,
      0.0032653677400473567
    ]
  }
}