{
  "12": {
    "1": [
      0.30822260687483555,
      0.0014389830067848557
    ],
    "2": [
      0.16420332793894502,
      0.0014291794863741396
    ],
    "3": [
      0.10423150266168356,
      0.0013354897856330753
    ],
    "4": [
      0.09596282004987884,
      0.001554198359060982
    ],
    "5": [
      0.08943168803706773,
      0.0016900779546250673
    ],
    "6": [
      0.2379480544375893,
      0.0038872078585856446
    ]
  }
}