{
  "17": {
    "1": [
      0.3150491430486959,
      0.001230258013739898
    ],
    "2": [
      0.16757397120606501,
      0.0013761088908082315
    ],
    "3": [
      0.10242875316369068,
      0.0012641723663359525
    ],
    "4": [
      0.09448285546428248,
      0.0015176067057809152
    ],
    "5": [
      0.3204652771172659,
      0.004199316332767724
    ]
  }
}