{
  "15": {
    "0": [
      312991.8146972656,
      559.4567138727228
    ],
    "1": [
      93112.7509765625,
      305.14382015135504
    ],
    "2": [
      51929.85009765625,
      227.8812192736739
    ],
    "3": [
      31547.381591796875,
      177.61582584836543
    ],
    "4": [
      29430.450927734375,
      171.55305572252095
    ],
    "5": [
      28653.429809570312,
      169.27324008705662
    ],
    "6": [
      26150.733276367188,
      161.71188353478288
    ],
    "7": [
      26400.88916015625,
      162.48350427091438
    ],
    "8": [
      25766.328857421875,
      160.51893613347266
    ]
  }
}