{
  "18": {
    "1": [
      0.29714894136426917,
      0.001432993477091227
    ],
    "2": [
      0.16470321360933213,
      0.0013927807619252867
    ],
    "3": [
      0.10244874038695757,
      0.0012541563343526007
    ],
    "4": [
      0.0932301684215945,
      0.00138777548380393
    ],
    "5": [
      0.08934749570142528,
      0.0014536427278474154
    ],
    "6": [
      0.2531214405164214,
      0.0034027095080088297
    ]
  }
}