{
  "12": {
    "0": [
      675588.2197265625,
      821.9417374282452
    ],
    "1": [
      208125.283203125,
      456.2075001609739
    ],
    "2": [
      110939.166015625,
      333.0753158305566
    ],
    "3": [
      70433.38330078125,
      265.3928847968258
    ],
    "4": [
      64849.09375,
      254.6548522019559
    ],
    "5": [
      60437.72216796875,
      245.84084723244985
    ],
    "6": [
      160803.5712890625,
      401.0032060832712
    ]
  }
}