{
  "12": {
    "1": [
      0.3014017239990526,
      0.001101569714629616
    ],
    "2": [
      0.16480646961741496,
      0.0009960321372453535
    ],
    "3": [
      0.105519672554142,
      0.0009356707083739017
    ],
    "4": [
      0.09746332978864158,
      0.001133237195079999
    ],
    "5": [
      0.33080880404074886,
      0.003447257284045367
    ]
  }
}