{
  "18": {
    "1": [
      0.29648298243942667,
      0.001309634807778527
    ],
    "2": [
      0.16541830943409494,
      0.0010842285943174989
    ],
    "3": [
      0.1029135915672025,
      0.0009204455165937254
    ],
    "4": [
      0.0935429171168251,
      0.0009943298376547895
    ],
    "5": [
      0.08941336395421079,
      0.0010672568589317713
    ],
    "6": [
      0.25222883548824,
      0.0025641964809479376
    ]
  }
}