{
  "11": {
    "0": [
      166192.3350830078,
      407.6669413663657
    ],
    "1": [
      48571.38818359375,
      220.38917437930962
    ],
    "2": [
      27601.953735351562,
      166.13835720673165
    ],
    "3": [
      17294.896728515625,
      131.51006322147225
    ],
    "4": [
      16092.158264160156,
      126.85487087282127
    ],
    "5": [
      14973.894714355469,
      122.36786634715614
    ],
    "6": [
      41658.04345703125,
      204.10302167540598
    ]
  }
}