{
  "18": {
    "1": [
      0.2971680808853051,
      0.0017145085909262747
    ],
    "2": [
      0.1647138213277715,
      0.0015045608021390022
    ],
    "3": [
      0.10245534731192084,
      0.00131007376500469
    ],
    "4": [
      0.09323617399324435,
      0.0014299184742541146
    ],
    "5": [
      0.08935324756949548,
      0.0014876875376282743
    ],
    "6": [
      0.0826509355418238,
      0.0014927486687063521
    ],
    "7": [
      0.08479221390446971,
      0.001680758344347448
    ],
    "8": [
      0.08563017946596921,
      0.001783354090827167
    ]
  }
}