{
  "17": {
    "0": [
      647250.349609375,
      804.5187068113302
    ],
    "1": [
      199504.04296875,
      446.65875449693135
    ],
    "2": [
      105863.0673828125,
      325.366051368013
    ],
    "3": [
      65089.76611328125,
      255.1269607730262
    ],
    "4": [
      60806.89306640625,
      246.59053726046798
    ],
    "5": [
      215986.580078125,
      464.7435637834321
    ]
  }
}