{
  "16": {
    "0": [
      651993.3540039062,
      807.4610541715967
    ],
    "1": [
      204261.005859375,
      451.95243760751526
    ],
    "2": [
      107502.0576171875,
      327.875064036879
    ],
    "3": [
      64859.82861328125,
      254.67592860983396
    ],
    "4": [
      60983.2978515625,
      246.94796587856823
    ],
    "5": [
      57388.1240234375,
      239.55818504788664
    ],
    "6": [
      156999.0400390625,
      396.2310437599034
    ]
  }
}