{
  "18": {
    "0": [
      330073.44384765625,
      574.5201857616983
    ],
    "1": [
      97862.94140625,
      312.83053144833866
    ],
    "2": [
      54601.18359375,
      233.66896155405408
    ],
    "3": [
      33969.6650390625,
      184.30861357804875
    ],
    "4": [
      30876.595703125,
      175.71737450555366
    ],
    "5": [
      29513.515625,
      171.7949813731472
    ],
    "6": [
      27205.8828125,
      164.94205895556172
    ],
    "7": [
      27809.42724609375,
      166.76158804141244
    ],
    "8": [
      28234.232421875,
      168.03045087684256
    ]
  }
}