{
  "16": {
    "1": [
      0.3131329029201623,
      0.0013001635385808787
    ],
    "2": [
      0.16488958022998995,
      0.001251613033028119
    ],
    "3": [
      0.09950146517912471,
      0.0011208101905628527
    ],
    "4": [
      0.09355904281637356,
      0.001291291221991184
    ],
    "5": [
      0.08804652371197862,
      0.0013378880465013921
    ],
    "6": [
      0.24087048514237083,
      0.0031085236450880595
    ]
  }
}