{
  "15": {
    "1": [
      0.32156341208665756,
      0.0012695662154394755
    ],
    "2": [
      0.17040354262517052,
      0.0011335603807190173
    ],
    "3": [
      0.10298749935353409,
      0.0009998715094275406
    ],
    "4": [
      0.09322288493858477,
      0.0011462171021347758
    ],
    "5": [
      0.31182266099605305,
      0.003353692682156406
    ]
  }
}