{
  "16": {
    "1": [
      0.3871276325338058,
      0.0026219020136888085,
      0.0021610582447301025,
      [
        -0.00016676147760158466,
        0.0021546144310999327
      ]
    ],
    "2": [
      0.17924208692698482,
      0.002182407416723757,
      0.0006141171057606849,
      [
        1.9133388545533592e-05,
        0.0006138189741533295
      ]
    ],
    "3": [
      0.10493172041142997,
      0.001841020663178626,
      6.480157676821754e-05,
      [
        2.9815106071862107e-05,
        -5.75352396498946e-05
      ]
    ],
    "4": [
      0.09700219998109835,
      0.0019988862429107346,
      0.0011206415024470786,
      [
        3.234037417501612e-05,
        -0.0011201747529760997
      ]
    ],
    "5": [
      0.08574526209957191,
      0.0018695003300607887,
      0.0001624442190024351,
      [
        3.155376497133988e-05,
        -0.00015935019360968639
      ]
    ],
    "6": [
      0.0687727645036247,
      0.0017090690463669412,
      0.0009565733723047306,
      [
        2.8877665761442572e-05,
        -0.0009561373839687554
      ]
    ],
    "7": [
      0.0533192537154909,
      0.0014261217242346573,
      0.0003648946467907969,
      [
        1.872580039125049e-05,
        -0.00036441384119745984
      ]
    ],
    "8": [
      0.023859079827993575,
      0.0008146116238607275,
      0.00011100179420398204,
      [
        6.315377685105206e-06,
        -0.0001108219938513906
      ]
    ]
  }
}