2011 
BDT & $f_{\mathrm{BDT, data}}$ & $w_{\mathrm{BDT, Trg}}$ & $w_{\mathrm{BDT, PID}}$ & $f_{\mathrm{BDT}}$ \ 
$[0, 0.25)$& $0.279 \pm 0.037 \pm 0.014$ & $0.786 \pm 0.013 \pm 0.017$ & $1.27537 \pm 0.03556 \pm 0.00234$ & $0.278 \pm 0.039 \pm 0.016$ \ 
$[0.25, 0.4)$& $0.166 \pm 0.007 \pm 0.002$ & $0.856 \pm 0.018 \pm 0.009$ & $1.16017 \pm 0.05342 \pm 0.00011$ & $0.167 \pm 0.013 \pm 0.003$ \ 
$[0.4, 0.5)$& $0.105 \pm 0.006 \pm 0.002$ & $0.917 \pm 0.024 \pm 0.002$ & $1.06511 \pm 0.06611 \pm 0.00604$ & $0.108 \pm 0.011 \pm 0.002$ \ 
$[0.5, 0.6)$& $0.103 \pm 0.006 \pm 0.003$ & $0.948 \pm 0.024 \pm 0.002$ & $0.97396 \pm 0.06231 \pm 0.00257$ & $0.111 \pm 0.012 \pm 0.003$ \ 
$[0.6, 0.7)$& $0.081 \pm 0.005 \pm 0.001$ & $1.044 \pm 0.026 \pm 0.007$ & $0.9345 \pm 0.05846 \pm 0.00243$ & $0.083 \pm 0.009 \pm 0.001$ \ 
$[0.7, 0.8)$& $0.084 \pm 0.005 \pm 0.001$ & $1.17 \pm 0.028 \pm 0.015$ & $0.83517 \pm 0.05124 \pm 0.00138$ & $0.086 \pm 0.009 \pm 0.002$ \ 
$[0.8, 0.9)$& $0.087 \pm 0.005 \pm 0.002$ & $1.306 \pm 0.03 \pm 0.016$ & $0.77982 \pm 0.04549 \pm 0.00424$ & $0.086 \pm 0.009 \pm 0.002$ \ 
$[0.9, 1]$& $0.096 \pm 0.005 \pm 0.002$ & $1.461 \pm 0.031 \pm 0.026$ & $0.76053 \pm 0.04136 \pm 0.00022$ & $0.086 \pm 0.008 \pm 0.002$ \ 

 
2012 
BDT & $f_{\mathrm{BDT, data}}$ & $w_{\mathrm{BDT, Trg}}$ & $w_{\mathrm{BDT, PID}}$ & $f_{\mathrm{BDT}}$ \ 
$[0, 0.25)$& $0.306 \pm 0.022 \pm 0.012$ & $0.855 \pm 0.005 \pm 0.018$ & $1.26961 \pm 0.00963 \pm 0.00354$ & $0.282 \pm 0.02 \pm 0.013$ \ 
$[0.25, 0.4)$& $0.17 \pm 0.004 \pm 0.002$ & $0.874 \pm 0.006 \pm 0.008$ & $1.15553 \pm 0.0158 \pm 0.00155$ & $0.169 \pm 0.006 \pm 0.003$ \ 
$[0.4, 0.5)$& $0.099 \pm 0.003 \pm 0.002$ & $0.92 \pm 0.007 \pm 0.003$ & $1.06624 \pm 0.01996 \pm 0.00032$ & $0.101 \pm 0.004 \pm 0.002$ \ 
$[0.5, 0.6)$& $0.099 \pm 0.003 \pm 0.002$ & $0.976 \pm 0.008 \pm 0.003$ & $0.97276 \pm 0.01867 \pm 0.00018$ & $0.104 \pm 0.005 \pm 0.002$ \ 
$[0.6, 0.7)$& $0.087 \pm 0.003 \pm 0.002$ & $1.024 \pm 0.008 \pm 0.007$ & $0.89455 \pm 0.01722 \pm 0.00019$ & $0.094 \pm 0.004 \pm 0.002$ \ 
$[0.7, 0.8)$& $0.08 \pm 0.003 \pm 0.001$ & $1.119 \pm 0.009 \pm 0.013$ & $0.81069 \pm 0.01568 \pm 0.00361$ & $0.089 \pm 0.004 \pm 0.002$ \ 
$[0.8, 0.9)$& $0.078 \pm 0.003 \pm 0.001$ & $1.251 \pm 0.009 \pm 0.019$ & $0.76389 \pm 0.01402 \pm 0.00232$ & $0.082 \pm 0.004 \pm 0.002$ \ 
$[0.9, 1]$& $0.081 \pm 0.003 \pm 0.001$ & $1.362 \pm 0.011 \pm 0.027$ & $0.75784 \pm 0.01362 \pm 0.00312$ & $0.078 \pm 0.004 \pm 0.002$ \ 

 
2015 
BDT & $f_{\mathrm{BDT, data}}$ & $w_{\mathrm{BDT, Trg}}$ & $w_{\mathrm{BDT, PID}}$ & $f_{\mathrm{BDT}}$ \ 
$[0, 0.25)$& $0.335 \pm 0.033 \pm 0.006$ & $0.809 \pm 0.01 \pm 0.017$ & $1.31449 \pm 0.01839 \pm 0.00267$ & $0.315 \pm 0.032 \pm 0.009$ \ 
$[0.25, 0.4)$& $0.162 \pm 0.007 \pm 0.001$ & $0.871 \pm 0.01 \pm 0.009$ & $1.16161 \pm 0.02719 \pm 0.00028$ & $0.16 \pm 0.009 \pm 0.002$ \ 
$[0.4, 0.5)$& $0.099 \pm 0.005 \pm 0.001$ & $0.932 \pm 0.012 \pm 0.003$ & $1.06911 \pm 0.03461 \pm 0.00168$ & $0.099 \pm 0.007 \pm 0.001$ \ 
$[0.5, 0.6)$& $0.084 \pm 0.005 \pm 0.002$ & $1.028 \pm 0.013 \pm 0.003$ & $0.96909 \pm 0.03095 \pm 0.00307$ & $0.084 \pm 0.006 \pm 0.003$ \ 
$[0.6, 0.7)$& $0.074 \pm 0.004 \pm 0.002$ & $1.069 \pm 0.014 \pm 0.008$ & $0.86636 \pm 0.02802 \pm 0.00313$ & $0.08 \pm 0.006 \pm 0.002$ \ 
$[0.7, 0.8)$& $0.076 \pm 0.004 \pm 0.001$ & $1.134 \pm 0.015 \pm 0.013$ & $0.78952 \pm 0.02626 \pm 0.00215$ & $0.085 \pm 0.006 \pm 0.002$ \ 
$[0.8, 0.9)$& $0.078 \pm 0.005 \pm 0.002$ & $1.221 \pm 0.015 \pm 0.017$ & $0.7706 \pm 0.02461 \pm 0.00154$ & $0.083 \pm 0.006 \pm 0.002$ \ 
$[0.9, 1]$& $0.092 \pm 0.005 \pm 0.001$ & $1.353 \pm 0.017 \pm 0.023$ & $0.77868 \pm 0.02165 \pm 0.00247$ & $0.088 \pm 0.006 \pm 0.002$ \ 

 
2016 
BDT & $f_{\mathrm{BDT, data}}$ & $w_{\mathrm{BDT, Trg}}$ & $w_{\mathrm{BDT, PID}}$ & $f_{\mathrm{BDT}}$ \ 
$[0, 0.25)$& $0.347 \pm 0.014 \pm 0.017$ & $0.87 \pm 0.005 \pm 0.018$ & $1.3112 \pm 0.01099 \pm 0.00468$ & $0.305 \pm 0.013 \pm 0.017$ \ 
$[0.25, 0.4)$& $0.163 \pm 0.003 \pm 0.004$ & $0.873 \pm 0.006 \pm 0.007$ & $1.1619 \pm 0.01787 \pm 0.00332$ & $0.161 \pm 0.005 \pm 0.004$ \ 
$[0.4, 0.5)$& $0.095 \pm 0.002 \pm 0.002$ & $0.935 \pm 0.008 \pm 0.002$ & $1.0389 \pm 0.02236 \pm 0.00053$ & $0.098 \pm 0.004 \pm 0.002$ \ 
$[0.5, 0.6)$& $0.09 \pm 0.002 \pm 0.002$ & $0.997 \pm 0.008 \pm 0.005$ & $0.93536 \pm 0.02049 \pm 0.00125$ & $0.097 \pm 0.004 \pm 0.003$ \ 
$[0.6, 0.7)$& $0.077 \pm 0.002 \pm 0.002$ & $1.034 \pm 0.009 \pm 0.008$ & $0.85407 \pm 0.0193 \pm 0.00052$ & $0.087 \pm 0.004 \pm 0.002$ \ 
$[0.7, 0.8)$& $0.069 \pm 0.002 \pm 0.002$ & $1.11 \pm 0.009 \pm 0.011$ & $0.79449 \pm 0.01812 \pm 0.00489$ & $0.078 \pm 0.003 \pm 0.002$ \ 
$[0.8, 0.9)$& $0.075 \pm 0.002 \pm 0.002$ & $1.209 \pm 0.01 \pm 0.016$ & $0.75184 \pm 0.01619 \pm 0.00251$ & $0.082 \pm 0.003 \pm 0.002$ \ 
$[0.9, 1]$& $0.084 \pm 0.002 \pm 0.002$ & $1.286 \pm 0.01 \pm 0.023$ & $0.76084 \pm 0.01512 \pm 0.00375$ & $0.085 \pm 0.003 \pm 0.003$ \ 

 
2017 
BDT & $f_{\mathrm{BDT, data}}$ & $w_{\mathrm{BDT, Trg}}$ & $w_{\mathrm{BDT, PID}}$ & $f_{\mathrm{BDT}}$ \ 
$[0, 0.25)$& $0.344 \pm 0.015 \pm 0.015$ & $0.858 \pm 0.005 \pm 0.014$ & $1.30456 \pm 0.01051 \pm 0.00371$ & $0.307 \pm 0.014 \pm 0.015$ \ 
$[0.25, 0.4)$& $0.16 \pm 0.003 \pm 0.003$ & $0.888 \pm 0.006 \pm 0.007$ & $1.15774 \pm 0.01669 \pm 0.00233$ & $0.155 \pm 0.004 \pm 0.003$ \ 
$[0.4, 0.5)$& $0.096 \pm 0.002 \pm 0.003$ & $0.944 \pm 0.008 \pm 0.003$ & $1.02868 \pm 0.02096 \pm 0.00023$ & $0.099 \pm 0.004 \pm 0.003$ \ 
$[0.5, 0.6)$& $0.088 \pm 0.002 \pm 0.002$ & $0.997 \pm 0.008 \pm 0.003$ & $0.94079 \pm 0.01956 \pm 0.00154$ & $0.094 \pm 0.004 \pm 0.003$ \ 
$[0.6, 0.7)$& $0.078 \pm 0.002 \pm 0.002$ & $1.036 \pm 0.008 \pm 0.006$ & $0.86111 \pm 0.01854 \pm 0.00047$ & $0.087 \pm 0.003 \pm 0.002$ \ 
$[0.7, 0.8)$& $0.07 \pm 0.002 \pm 0.002$ & $1.104 \pm 0.009 \pm 0.009$ & $0.78466 \pm 0.0172 \pm 0.00203$ & $0.081 \pm 0.003 \pm 0.002$ \ 
$[0.8, 0.9)$& $0.074 \pm 0.002 \pm 0.002$ & $1.208 \pm 0.009 \pm 0.014$ & $0.7606 \pm 0.01571 \pm 0.00339$ & $0.081 \pm 0.003 \pm 0.002$ \ 
$[0.9, 1]$& $0.09 \pm 0.002 \pm 0.002$ & $1.289 \pm 0.009 \pm 0.022$ & $0.77029 \pm 0.01457 \pm 0.00297$ & $0.09 \pm 0.003 \pm 0.003$ \ 

 
2018 
BDT & $f_{\mathrm{BDT, data}}$ & $w_{\mathrm{BDT, Trg}}$ & $w_{\mathrm{BDT, PID}}$ & $f_{\mathrm{BDT}}$ \ 
$[0, 0.25)$& $0.346 \pm 0.013 \pm 0.017$ & $0.848 \pm 0.005 \pm 0.019$ & $1.31361 \pm 0.01165 \pm 0.00364$ & $0.311 \pm 0.013 \pm 0.017$ \ 
$[0.25, 0.4)$& $0.159 \pm 0.003 \pm 0.004$ & $0.88 \pm 0.006 \pm 0.007$ & $1.16579 \pm 0.01839 \pm 0.00275$ & $0.155 \pm 0.004 \pm 0.004$ \ 
$[0.4, 0.5)$& $0.094 \pm 0.002 \pm 0.002$ & $0.928 \pm 0.008 \pm 0.001$ & $1.03204 \pm 0.02321 \pm 0.00184$ & $0.098 \pm 0.004 \pm 0.002$ \ 
$[0.5, 0.6)$& $0.085 \pm 0.002 \pm 0.002$ & $0.998 \pm 0.009 \pm 0.004$ & $0.94675 \pm 0.02129 \pm 0.00221$ & $0.09 \pm 0.003 \pm 0.002$ \ 
$[0.6, 0.7)$& $0.08 \pm 0.002 \pm 0.002$ & $1.056 \pm 0.009 \pm 0.006$ & $0.86378 \pm 0.01982 \pm 0.00086$ & $0.087 \pm 0.003 \pm 0.003$ \ 
$[0.7, 0.8)$& $0.072 \pm 0.002 \pm 0.002$ & $1.11 \pm 0.01 \pm 0.013$ & $0.78156 \pm 0.01853 \pm 0.00172$ & $0.083 \pm 0.003 \pm 0.002$ \ 
$[0.8, 0.9)$& $0.076 \pm 0.002 \pm 0.002$ & $1.203 \pm 0.01 \pm 0.017$ & $0.76518 \pm 0.01717 \pm 0.00377$ & $0.082 \pm 0.003 \pm 0.003$ \ 
$[0.9, 1]$& $0.088 \pm 0.002 \pm 0.002$ & $1.321 \pm 0.01 \pm 0.025$ & $0.7576 \pm 0.01529 \pm 0.00311$ & $0.088 \pm 0.003 \pm 0.003$ \ 

 
