{
  "18": {
    "1": [
      0.2956629457355436,
      0.0012858648724063588
    ],
    "2": [
      0.16427895969850748,
      0.0013476064659812437
    ],
    "3": [
      0.1019619333033145,
      0.001239259255978964
    ],
    "4": [
      0.09586216138337936,
      0.001471698902649642
    ],
    "5": [
      0.0894015553250127,
      0.001522769253984971
    ],
    "6": [
      0.2528324445542424,
      0.0037416353003541314
    ]
  }
}