{
  "15": {
    "1": [
      0.3036792216695574,
      0.0012556114089152652
    ],
    "2": [
      0.16374101648252345,
      0.000991029647275189
    ],
    "3": [
      0.10062895113910897,
      0.0008254629480090928
    ],
    "4": [
      0.09416307039691796,
      0.000918354432530608
    ],
    "5": [
      0.09056326043867934,
      0.000990860286602187
    ],
    "6": [
      0.24722447987321292,
      0.0023707958774333918
    ]
  }
}