{
  "12": {
    "0": [
      2134223.53125,
      1460.8981933214923
    ],
    "1": [
      631275.75,
      794.5286338452504
    ],
    "2": [
      344190.46875,
      586.6774827364691
    ],
    "3": [
      222387.5625,
      471.5798580304295
    ],
    "4": [
      207234.8359375,
      455.23053054194423
    ],
    "5": [
      194949.2890625,
      441.53062075296657
    ],
    "6": [
      534185.625,
      730.8800346158048
    ]
  }
}