{
  "17": {
    "0": [
      1017077.2998046875,
      1008.5025036184528
    ],
    "1": [
      312141.546875,
      558.6962921614927
    ],
    "2": [
      166255.68359375,
      407.74463036777075
    ],
    "3": [
      102411.908203125,
      320.01860602646997
    ],
    "4": [
      96013.875,
      309.86105757258366
    ],
    "5": [
      89621.3486328125,
      299.36824920624514
    ],
    "6": [
      250632.9375,
      500.6325373964421
    ]
  }
}