{
  "18": {
    "1": [
      0.3026629778921482,
      0.0012140956452822741
    ],
    "2": [
      0.16554328576371677,
      0.0014523102995114086
    ],
    "3": [
      0.10236876108689988,
      0.001386607411972305
    ],
    "4": [
      0.09557085630948702,
      0.0017065703137213559
    ],
    "5": [
      0.3338541189477482,
      0.004840566029134306
    ]
  }
}