{
  "17": {
    "0": [
      1018546.33984375,
      1009.2305682269786
    ],
    "1": [
      307791.96875,
      554.7900222156127
    ],
    "2": [
      168278.39453125,
      410.21749661764795
    ],
    "3": [
      104742.19921875,
      323.63899520723703
    ],
    "4": [
      98195.046875,
      313.36088919167946
    ],
    "5": [
      89997.80078125,
      299.9963346130249
    ],
    "6": [
      249540.9296875,
      499.54071874823177
    ]
  }
}