{
  "15": {
    "0": [
      523377.75537109375,
      723.4485160473369
    ],
    "1": [
      160528.484375,
      400.66006086831266
    ],
    "2": [
      86331.1376953125,
      293.8216086255613
    ],
    "3": [
      53545.8251953125,
      231.39970871916088
    ],
    "4": [
      49546.5283203125,
      222.59049467646298
    ],
    "5": [
      46193.41552734375,
      214.92653518666268
    ],
    "6": [
      127232.3642578125,
      356.69645955323483
    ]
  }
}