{
  "18": {
    "0": [
      1054134.521484375,
      1026.7105344177467
    ],
    "1": [
      317456.5,
      563.4327821488558
    ],
    "2": [
      174827.1484375,
      418.1233650939636
    ],
    "3": [
      108525.98828125,
      329.4328281778396
    ],
    "4": [
      101204.4296875,
      318.12643663722764
    ],
    "5": [
      93015.96875,
      304.98519431277316
    ],
    "6": [
      85238.46484375,
      291.9562721431927
    ],
    "7": [
      86737.47265625,
      294.51226231899074
    ],
    "8": [
      87128.548828125,
      295.175454311711
    ]
  }
}