{
  "18": {
    "0": [
      1046743.6225585938,
      1023.1048932336282
    ],
    "1": [
      309665.87890625,
      556.4763057905071
    ],
    "2": [
      171963.232421875,
      414.68449744579914
    ],
    "3": [
      106712.966796875,
      326.66950698967145
    ],
    "4": [
      100323.6201171875,
      316.73904103723544
    ],
    "5": [
      93559.2255859375,
      305.8745258859219
    ],
    "6": [
      87244.61279296875,
      295.37199053561045
    ],
    "7": [
      88927.84228515625,
      298.2077166760717
    ],
    "8": [
      88346.24365234375,
      297.23096011745434
    ]
  }
}