{
  "11": {
    "1": [
      0.28572947314301167,
      0.001820048952477138
    ],
    "2": [
      0.15948004195312857,
      0.0015939568210095413
    ],
    "3": [
      0.1050566774043892,
      0.0014244858989607312
    ],
    "4": [
      0.0979608979426058,
      0.001613272924895726
    ],
    "5": [
      0.0916925569447829,
      0.0017008723327780124
    ],
    "6": [
      0.08624699636897604,
      0.0017377582692203208
    ],
    "7": [
      0.08831335918166175,
      0.001988977723765702
    ],
    "8": [
      0.08551999706144406,
      0.0019068352819784347
    ]
  }
}