{
  "17": {
    "0": [
      1017080.82421875,
      1008.5042509671191
    ],
    "1": [
      311927.51171875,
      558.5047105609316
    ],
    "2": [
      166234.751953125,
      407.71896197396194
    ],
    "3": [
      102416.6064453125,
      320.02594651889166
    ],
    "4": [
      96023.3896484375,
      309.87641028067543
    ],
    "5": [
      340478.564453125,
      583.5054108173505
    ]
  }
}