{
  "15": {
    "0": [
      523393.1389160156,
      723.459148062982
    ],
    "1": [
      160544.859375,
      400.68049537630355
    ],
    "2": [
      86339.951171875,
      293.83660624890666
    ],
    "3": [
      53551.29150390625,
      231.41151981676765
    ],
    "4": [
      49551.583984375,
      222.6018508107581
    ],
    "5": [
      46198.1298828125,
      214.93750227173595
    ],
    "6": [
      42328.44140625,
      205.73876981806322
    ],
    "7": [
      42613.075927734375,
      206.42934851356378
    ],
    "8": [
      42265.8056640625,
      205.5864919299478
    ]
  }
}