{
  "16": {
    "0": [
      1020891.66796875,
      1010.391838827269
    ],
    "1": [
      318655.18359375,
      564.4955124655554
    ],
    "2": [
      167290.275390625,
      409.01133895116527
    ],
    "3": [
      101863.728515625,
      319.16097586582384
    ],
    "4": [
      95924.955078125,
      309.7175407982651
    ],
    "5": [
      90745.15625,
      301.23936703226553
    ],
    "6": [
      246412.369140625,
      496.39940485522845
    ]
  }
}