{
  "16": {
    "0": [
      1021219.0634765625,
      1010.5538399692332
    ],
    "1": [
      318829.421875,
      564.6498223456729
    ],
    "2": [
      167288.564453125,
      409.00924739316713
    ],
    "3": [
      101845.0703125,
      319.1317444449862
    ],
    "4": [
      95902.3935546875,
      309.6811159155293
    ],
    "5": [
      337353.61328125,
      580.8214986389967
    ]
  }
}