{
  "18": {
    "0": [
      1046795.7265625,
      1023.1303565834121
    ],
    "1": [
      309609.32421875,
      556.4254884697052
    ],
    "2": [
      171931.8359375,
      414.64663984831714
    ],
    "3": [
      106693.47265625,
      326.6396679159621
    ],
    "4": [
      100305.29296875,
      316.7101087252347
    ],
    "5": [
      358255.80078125,
      598.5447358228539
    ]
  }
}