{
  "11": {
    "0": [
      186686.90673828125,
      432.07280259035196
    ],
    "1": [
      52930.71875,
      230.0667701994358
    ],
    "2": [
      29865.005859375,
      172.81494686332834
    ],
    "3": [
      19620.71044921875,
      140.07394636126574
    ],
    "4": [
      18573.880859375,
      136.2860259137928
    ],
    "5": [
      65696.5908203125,
      256.31346203489295
    ]
  }
}