{
  "17": {
    "1": [
      0.3069005147739916,
      0.0013195391229102764
    ],
    "2": [
      0.16346415717436286,
      0.0013455430191062635
    ],
    "3": [
      0.10069235467431185,
      0.0012241768678225846
    ],
    "4": [
      0.09440174804652296,
      0.0014564813223202986
    ],
    "5": [
      0.08811655579179947,
      0.0014803508801826727
    ],
    "6": [
      0.24642466953901127,
      0.00363118133511833
    ]
  }
}