{
  "15": {
    "1": [
      0.3036963188922832,
      0.0015201802341763457
    ],
    "2": [
      0.16375022361967048,
      0.0011204368382336032
    ],
    "3": [
      0.10063461326191459,
      0.0008947750336796227
    ],
    "4": [
      0.09416836856669014,
      0.0009728187932619275
    ],
    "5": [
      0.09056835595495084,
      0.00103552810568599
    ],
    "6": [
      0.08326063652678037,
      0.001057419815086438
    ],
    "7": [
      0.08358985064409491,
      0.0011528605614203762
    ],
    "8": [
      0.08033163253361547,
      0.0012332689552091206
    ]
  }
}