{
  "16": {
    "0": [
      1032397.29296875,
      1016.0695315620629
    ],
    "1": [
      320800.4140625,
      566.3924558665132
    ],
    "2": [
      171511.26953125,
      414.1391910110054
    ],
    "3": [
      105654.0859375,
      325.0447445160435
    ],
    "4": [
      98341.2734375,
      313.5941221348066
    ],
    "5": [
      89825.1171875,
      299.70838691551495
    ],
    "6": [
      246265.1328125,
      496.2510783993321
    ]
  }
}