{
  "15": {
    "0": [
      522109.109375,
      722.5711794522391
    ],
    "1": [
      159047.609375,
      398.8077348485107
    ],
    "2": [
      86636.115234375,
      294.34013527613763
    ],
    "3": [
      53872.3125,
      232.1040984127596
    ],
    "4": [
      49812.8203125,
      223.18785879276678
    ],
    "5": [
      46387.404296875,
      215.37735325905322
    ],
    "6": [
      41856.9697265625,
      204.58975958381325
    ],
    "7": [
      42398.599609375,
      205.90920234262236
    ],
    "8": [
      42097.2783203125,
      205.17621285205675
    ]
  }
}