{
  "15": {
    "0": [
      511273.48388671875,
      715.0339040120537
    ],
    "1": [
      156266.12890625,
      395.3051086265519
    ],
    "2": [
      83316.224609375,
      288.6454998945506
    ],
    "3": [
      51143.7919921875,
      226.1499325495975
    ],
    "4": [
      47885.48974609375,
      218.8275342503629
    ],
    "5": [
      46048.71533203125,
      214.5896440465645
    ],
    "6": [
      42797.7080078125,
      206.8760692004092
    ],
    "7": [
      42751.46435546875,
      206.7642724347433
    ],
    "8": [
      41063.9609375,
      202.64244604105033
    ]
  }
}