{
  "18": {
    "1": [
      0.2958373686092516,
      0.001650106695074431
    ],
    "2": [
      0.16428400299353052,
      0.0014839421537797175
    ],
    "3": [
      0.10194756815048234,
      0.001304409679220918
    ],
    "4": [
      0.09584354559711843,
      0.001520907169977766
    ],
    "5": [
      0.08938122341481027,
      0.0015596212159119961
    ],
    "6": [
      0.08334859741463105,
      0.0016062336514939145
    ],
    "7": [
      0.0849566602257262,
      0.0018215091333998949
    ],
    "8": [
      0.0844010335944496,
      0.0019106718192669295
    ]
  }
}