{
  "15": {
    "1": [
      0.3056927822116319,
      0.0012873308057252968
    ],
    "2": [
      0.1628948881676044,
      0.0013550732643409257
    ],
    "3": [
      0.09997604422687995,
      0.0012414731655274365
    ],
    "4": [
      0.09360179209290492,
      0.0014249212983542278
    ],
    "5": [
      0.33783449330097887,
      0.0038101108883716772
    ]
  }
}