{
  "18": {
    "0": [
      1053936.9453125,
      1026.6143118584018
    ],
    "1": [
      319147.70703125,
      564.9315950017755
    ],
    "2": [
      174462.173828125,
      417.6866933816841
    ],
    "3": [
      107865.4482421875,
      328.4287567223484
    ],
    "4": [
      100697.1982421875,
      317.3282184776316
    ],
    "5": [
      351764.41796875,
      593.0973090216731
    ]
  }
}