{
  "16": {
    "1": [
      0.31314411966171435,
      0.0017263344949503827
    ],
    "2": [
      0.16560697908385144,
      0.0016046511261646925
    ],
    "3": [
      0.10148673972237955,
      0.0014507358793919387
    ],
    "4": [
      0.09431151123791444,
      0.0017478765889622542
    ],
    "5": [
      0.0867189286913244,
      0.0018401228892343576
    ],
    "6": [
      0.07871617554589952,
      0.0018674417223544784
    ],
    "7": [
      0.08019464380990708,
      0.0021237477413601617
    ],
    "8": [
      0.07982090224700922,
      0.002184184266007272
    ]
  }
}