\relax 
\providecommand\hyper@newdestlabel[2]{}
\providecommand\HyperFirstAtBeginDocument{\AtBeginDocument}
\HyperFirstAtBeginDocument{\ifx\hyper@anchor\@undefined
\global\let\oldcontentsline\contentsline
\gdef\contentsline#1#2#3#4{\oldcontentsline{#1}{#2}{#3}}
\global\let\oldnewlabel\newlabel
\gdef\newlabel#1#2{\newlabelxx{#1}#2}
\gdef\newlabelxx#1#2#3#4#5#6{\oldnewlabel{#1}{{#2}{#3}}}
\AtEndDocument{\ifx\hyper@anchor\@undefined
\let\contentsline\oldcontentsline
\let\newlabel\oldnewlabel
\fi}
\fi}
\global\let\hyper@last\relax 
\gdef\HyperFirstAtBeginDocument#1{#1}
\providecommand\HyField@AuxAddToFields[1]{}
\providecommand\HyField@AuxAddToCoFields[2]{}
\providecommand \oddpage@label [2]{}
\@writefile{toc}{\contentsline {part}{I\hspace  {1em}Theoretical beauty}{4}{part.1}\protected@file@percent }
\newlabel{ch:theory}{{I}{5}{Theoretical beauty}{part.1}{}}
\newlabel{ch:theory@cref}{{[part][1][]I}{[1][5][]5}}
\@writefile{toc}{\contentsline {part}{II\hspace  {1em}Experimental beauty: The \mbox  {LHCb}\xspace  detector}{5}{part.2}\protected@file@percent }
\newlabel{ch:experiment}{{II}{6}{Experimental beauty: The \lhcb detector}{part.2}{}}
\newlabel{ch:experiment@cref}{{[part][2][]II}{[1][6][]6}}
\newlabel{sec:lhcb-detector}{{II}{6}{Experimental beauty: The \lhcb detector}{part.2}{}}
\newlabel{sec:lhcb-detector@cref}{{[part][2][]II}{[1][6][]6}}
\@writefile{toc}{\contentsline {part}{III\hspace  {1em}Analysis beauty: The \mbox  {\ensuremath  {{\ensuremath  {{\ensuremath  {\ensuremath  {B}\xspace  }}\xspace  _{({\ensuremath  {\ensuremath  {s}\xspace  }}\xspace  )}^0}}\xspace  \!\ensuremath  {\rightarrow }\xspace  {\ensuremath  {\ensuremath  {\mu }\xspace  ^+}}\xspace  {\ensuremath  {\ensuremath  {\mu }\xspace  ^-}}\xspace  }}\xspace   analysis}{6}{part.3}\protected@file@percent }
\@writefile{toc}{\contentsline {chapter}{\numberline {1}Analysis overview}{7}{chapter.1}\protected@file@percent }
\@writefile{lof}{\addvspace {10\p@ }}
\@writefile{lot}{\addvspace {10\p@ }}
\@writefile{toc}{\contentsline {chapter}{\numberline {2}Selection and efficiencies}{8}{chapter.2}\protected@file@percent }
\@writefile{lof}{\addvspace {10\p@ }}
\@writefile{lot}{\addvspace {10\p@ }}
\@writefile{toc}{\contentsline {chapter}{\numberline {3}BDT calibration}{9}{chapter.3}\protected@file@percent }
\@writefile{lof}{\addvspace {10\p@ }}
\@writefile{lot}{\addvspace {10\p@ }}
\@writefile{toc}{\contentsline {section}{\numberline {3.1}\mbox  {\ensuremath  {{\ensuremath  {\ensuremath  {B}\xspace  }}\xspace  \!\ensuremath  {\rightarrow }\xspace  \ensuremath  {h}\xspace  ^+ \ensuremath  {h}\xspace  '^-}}\xspace   calibration}{9}{section.3.1}\protected@file@percent }
\newlabel{sec: BHH calibration}{{3.1}{9}{\texorpdfstring {\BTohh }{texttwoinferior} calibration}{section.3.1}{}}
\newlabel{sec: BHH calibration@cref}{{[section][1][3]3.1}{[1][9][]9}}
\newlabel{eq:BHH BDT calib}{{3.1}{9}{\texorpdfstring {\BTohh }{texttwoinferior} calibration}{equation.3.1.1}{}}
\newlabel{eq:BHH BDT calib@cref}{{[equation][1][3]3.1}{[1][9][]9}}
\citation{Skwarnicki:1986xj}
\@writefile{toc}{\contentsline {subsection}{\numberline {3.1.1}Relative fitted yields}{10}{subsection.3.1.1}\protected@file@percent }
\newlabel{subsec:BHH_BDT_RelFittedYields}{{3.1.1}{10}{Relative fitted yields}{subsection.3.1.1}{}}
\newlabel{subsec:BHH_BDT_RelFittedYields@cref}{{[subsection][1][3,1]3.1.1}{[1][10][]10}}
\@writefile{lof}{\contentsline {figure}{\numberline {3.1}{\ignorespaces Invariant mass fits for \mbox  {\ensuremath  {{\ensuremath  {{\ensuremath  {\ensuremath  {B}\xspace  }}\xspace  ^0}}\xspace  \!\ensuremath  {\rightarrow }\xspace  {\ensuremath  {{\ensuremath  {\ensuremath  {K}\xspace  }}\xspace  ^+}}\xspace  {\ensuremath  {{\ensuremath  {\ensuremath  {\pi }\xspace  }}\xspace  ^-}}\xspace  }}\xspace  and \mbox  {\ensuremath  {{{{\ensuremath  {\kern 0.18em\overline  {\kern -0.18em \ensuremath  {B}\xspace  }{}}}\xspace  ^0}\xspace  }\!\ensuremath  {\rightarrow }\xspace  {\ensuremath  {{\ensuremath  {\ensuremath  {K}\xspace  }}\xspace  ^-}}\xspace  {\ensuremath  {{\ensuremath  {\ensuremath  {\pi }\xspace  }}\xspace  ^+}}\xspace  }}\xspace  in 2016 data for the each BDT bin and the full range.\relax }}{10}{figure.caption.3}\protected@file@percent }
\providecommand*\caption@xref[2]{\@setref\relax\@undefined{#1}}
\newlabel{fig:b2hh_fits}{{3.1}{10}{Invariant mass fits for \BdToKpi and \BdTopiK in 2016 data for the each BDT bin and the full range.\relax }{figure.caption.3}{}}
\newlabel{fig:b2hh_fits@cref}{{[figure][1][3]3.1}{[1][10][]10}}
\@writefile{toc}{\contentsline {subsection}{\numberline {3.1.2}Relative trigger efficiencies}{11}{subsection.3.1.2}\protected@file@percent }
\newlabel{subsec:BHH_BDT_RelTrgEff}{{3.1.2}{11}{Relative trigger efficiencies}{subsection.3.1.2}{}}
\newlabel{subsec:BHH_BDT_RelTrgEff@cref}{{[subsection][2][3,1]3.1.2}{[1][11][]11}}
\newlabel{fig:rel_tis_no_BDT_correction}{{3.2a}{12}{No BDT correction taken into account.\relax }{figure.caption.4}{}}
\newlabel{fig:rel_tis_no_BDT_correction@cref}{{[subfigure][1][3,2]3.2a}{[1][11][]12}}
\newlabel{sub@fig:rel_tis_no_BDT_correction}{{a}{12}{No BDT correction taken into account.\relax }{figure.caption.4}{}}
\newlabel{sub@fig:rel_tis_no_BDT_correction@cref}{{[subfigure][1][3,2]3.2a}{[1][11][]12}}
\newlabel{fig:rel_tis_BDT_correction}{{3.2b}{12}{BDT correction included to correct the TIS map.\relax }{figure.caption.4}{}}
\newlabel{fig:rel_tis_BDT_correction@cref}{{[subfigure][2][3,2]3.2b}{[1][11][]12}}
\newlabel{sub@fig:rel_tis_BDT_correction}{{b}{12}{BDT correction included to correct the TIS map.\relax }{figure.caption.4}{}}
\newlabel{sub@fig:rel_tis_BDT_correction@cref}{{[subfigure][2][3,2]3.2b}{[1][11][]12}}
\@writefile{lof}{\contentsline {figure}{\numberline {3.2}{\ignorespaces Relative TIS trigger efficiencies evaluated directly from simulation and from the convolution of TIS maps from \mbox  {\ensuremath  {{\ensuremath  {{\ensuremath  {\ensuremath  {B}\xspace  }}\xspace  ^0}}\xspace  \!\ensuremath  {\rightarrow }\xspace  {\ensuremath  {{\ensuremath  {\ensuremath  {K}\xspace  }}\xspace  ^+}}\xspace  {\ensuremath  {{\ensuremath  {\ensuremath  {\pi }\xspace  }}\xspace  ^-}}\xspace  }}\xspace  simulation with the very same sample.\relax }}{12}{figure.caption.4}\protected@file@percent }
\citation{Anderlini:2202412}
\@writefile{lof}{\contentsline {figure}{\numberline {3.3}{\ignorespaces Relative TIS efficiencies for \mbox  {\ensuremath  {{\ensuremath  {{\ensuremath  {\ensuremath  {B}\xspace  }}\xspace  ^0}}\xspace  \!\ensuremath  {\rightarrow }\xspace  {\ensuremath  {{\ensuremath  {\ensuremath  {K}\xspace  }}\xspace  ^+}}\xspace  {\ensuremath  {{\ensuremath  {\ensuremath  {\pi }\xspace  }}\xspace  ^-}}\xspace  }}\xspace  for the 2016 data taking-year datdetermined using different methos\relax }}{13}{figure.caption.5}\protected@file@percent }
\newlabel{fig:relTISEff_systematics}{{3.3}{13}{Relative TIS efficiencies for \BdToKpi for the 2016 data taking-year datdetermined using different methos\relax }{figure.caption.5}{}}
\newlabel{fig:relTISEff_systematics@cref}{{[figure][3][3]3.3}{[1][13][]13}}
\@writefile{toc}{\contentsline {subsection}{\numberline {3.1.3}Relative PID efficiencies}{13}{subsection.3.1.3}\protected@file@percent }
\newlabel{subsec:BHH_BDT_RelPIDEff}{{3.1.3}{13}{Relative PID efficiencies}{subsection.3.1.3}{}}
\newlabel{subsec:BHH_BDT_RelPIDEff@cref}{{[subsection][3][3,1]3.1.3}{[1][13][]13}}
\@writefile{toc}{\contentsline {subsection}{\numberline {3.1.4}Final results}{14}{subsection.3.1.4}\protected@file@percent }
\@writefile{lot}{\contentsline {table}{\numberline {3.1}{\ignorespaces Relative fitted yields, trigger and PID correction and final corrected relative yields for \mbox  {\ensuremath  {{\ensuremath  {{\ensuremath  {\ensuremath  {B}\xspace  }}\xspace  ^0}}\xspace  \!\ensuremath  {\rightarrow }\xspace  {\ensuremath  {{\ensuremath  {\ensuremath  {K}\xspace  }}\xspace  ^+}}\xspace  {\ensuremath  {{\ensuremath  {\ensuremath  {\pi }\xspace  }}\xspace  ^-}}\xspace  }}\xspace  for all Run1 years.\relax }}{14}{table.caption.6}\protected@file@percent }
\newlabel{tab:bhh_calibration_bkpi_run1}{{3.1}{14}{Relative fitted yields, trigger and PID correction and final corrected relative yields for \BdToKpi for all Run1 years.\relax }{table.caption.6}{}}
\newlabel{tab:bhh_calibration_bkpi_run1@cref}{{[table][1][3]3.1}{[1][14][]14}}
\@writefile{toc}{\contentsline {section}{\numberline {3.2}\mbox  {\ensuremath  {{\ensuremath  {{\ensuremath  {\ensuremath  {B}\xspace  }}\xspace  _{({\ensuremath  {\ensuremath  {s}\xspace  }}\xspace  )}^0}}\xspace  \!\ensuremath  {\rightarrow }\xspace  {\ensuremath  {\ensuremath  {\mu }\xspace  ^+}}\xspace  {\ensuremath  {\ensuremath  {\mu }\xspace  ^-}}\xspace  }}\xspace   calibration}{14}{section.3.2}\protected@file@percent }
\newlabel{sec:BMuMu calibration}{{3.2}{14}{\texorpdfstring {\Bmm }{texttwoinferior} calibration}{section.3.2}{}}
\newlabel{sec:BMuMu calibration@cref}{{[section][2][3]3.2}{[1][14][]14}}
\@writefile{lot}{\contentsline {table}{\numberline {3.2}{\ignorespaces Relative fitted yields, trigger and PID correction and final corrected relative yields for \mbox  {\ensuremath  {{\ensuremath  {{\ensuremath  {\ensuremath  {B}\xspace  }}\xspace  ^0}}\xspace  \!\ensuremath  {\rightarrow }\xspace  {\ensuremath  {{\ensuremath  {\ensuremath  {K}\xspace  }}\xspace  ^+}}\xspace  {\ensuremath  {{\ensuremath  {\ensuremath  {\pi }\xspace  }}\xspace  ^-}}\xspace  }}\xspace  for all Run2 years.\relax }}{15}{table.caption.7}\protected@file@percent }
\newlabel{tab:bhh_calibration_bkpi_run2}{{3.2}{15}{Relative fitted yields, trigger and PID correction and final corrected relative yields for \BdToKpi for all Run2 years.\relax }{table.caption.7}{}}
\newlabel{tab:bhh_calibration_bkpi_run2@cref}{{[table][2][3]3.2}{[1][14][]15}}
\@writefile{toc}{\contentsline {subsection}{\numberline {3.2.1}MC-data weights}{15}{subsection.3.2.1}\protected@file@percent }
\newlabel{subsec:BMuMuBDT_MCWeights}{{3.2.1}{15}{MC-data weights}{subsection.3.2.1}{}}
\newlabel{subsec:BMuMuBDT_MCWeights@cref}{{[subsection][1][3,2]3.2.1}{[1][15][]15}}
\@writefile{lot}{\contentsline {table}{\numberline {3.3}{\ignorespaces Relative fitted yields, trigger and PID correction and final corrected relative yields for \mbox  {\ensuremath  {{\ensuremath  {{\ensuremath  {\ensuremath  {B}\xspace  }}\xspace  ^0_{\ensuremath  {\ensuremath  {s}\xspace  }}\xspace  }}\xspace  \!\ensuremath  {\rightarrow }\xspace  {\ensuremath  {{\ensuremath  {\ensuremath  {K}\xspace  }}\xspace  ^+}}\xspace  {\ensuremath  {{\ensuremath  {\ensuremath  {K}\xspace  }}\xspace  ^-}}\xspace  }}\xspace  for all Run1 years.\relax }}{16}{table.caption.8}\protected@file@percent }
\newlabel{tab:bhh_calibration_bskk_run1}{{3.3}{16}{Relative fitted yields, trigger and PID correction and final corrected relative yields for \BsToKK for all Run1 years.\relax }{table.caption.8}{}}
\newlabel{tab:bhh_calibration_bskk_run1@cref}{{[table][3][3]3.3}{[1][14][]16}}
\@writefile{toc}{\contentsline {subsection}{\numberline {3.2.2}Occupancy correction}{16}{subsection.3.2.2}\protected@file@percent }
\newlabel{subsec:BMuMuBDT_nTraksCorrection}{{3.2.2}{16}{Occupancy correction}{subsection.3.2.2}{}}
\newlabel{subsec:BMuMuBDT_nTraksCorrection@cref}{{[subsection][2][3,2]3.2.2}{[1][16][]16}}
\@writefile{lot}{\contentsline {table}{\numberline {3.4}{\ignorespaces Relative fitted yields, trigger and PID correction and final corrected relative yields for \mbox  {\ensuremath  {{\ensuremath  {{\ensuremath  {\ensuremath  {B}\xspace  }}\xspace  ^0_{\ensuremath  {\ensuremath  {s}\xspace  }}\xspace  }}\xspace  \!\ensuremath  {\rightarrow }\xspace  {\ensuremath  {{\ensuremath  {\ensuremath  {K}\xspace  }}\xspace  ^+}}\xspace  {\ensuremath  {{\ensuremath  {\ensuremath  {K}\xspace  }}\xspace  ^-}}\xspace  }}\xspace  for all Run2 years.\relax }}{17}{table.caption.9}\protected@file@percent }
\newlabel{tab:bhh_calibration_bskk_run2}{{3.4}{17}{Relative fitted yields, trigger and PID correction and final corrected relative yields for \BsToKK for all Run2 years.\relax }{table.caption.9}{}}
\newlabel{tab:bhh_calibration_bskk_run2@cref}{{[table][4][3]3.4}{[1][14][]17}}
\@writefile{lof}{\contentsline {figure}{\numberline {3.4}{\ignorespaces Training variables of the GBRs trained on \mbox  {\ensuremath  {{\ensuremath  {{\ensuremath  {\ensuremath  {B}\xspace  }}\xspace  ^+}}\xspace  \!\ensuremath  {\rightarrow }\xspace  {\ensuremath  {{\ensuremath  {J}\xspace  \mskip -3mu/\mskip -2mu\ensuremath  {\psi }\xspace  \mskip 2mu}}}\xspace  {\ensuremath  {{\ensuremath  {\ensuremath  {K}\xspace  }}\xspace  ^+}}\xspace  }}\xspace  (left) and \mbox  {\ensuremath  {{\ensuremath  {{\ensuremath  {\ensuremath  {B}\xspace  }}\xspace  ^0_{\ensuremath  {\ensuremath  {s}\xspace  }}\xspace  }}\xspace  \!\ensuremath  {\rightarrow }\xspace  {\ensuremath  {{\ensuremath  {J}\xspace  \mskip -3mu/\mskip -2mu\ensuremath  {\psi }\xspace  \mskip 2mu}}}\xspace  \phi }}\xspace  (right) for 2016 with the effect of the weights. The grey area corresponds to the simulation, in black the data and in red the weighted simulation distributions.\relax }}{18}{figure.caption.10}\protected@file@percent }
\newlabel{fig:bsmumu_calib_reweighting}{{3.4}{18}{Training variables of the GBRs trained on \BuToJpsiK (left) and \BsToJPsiPhi (right) for 2016 with the effect of the weights. The grey area corresponds to the simulation, in black the data and in red the weighted simulation distributions.\relax }{figure.caption.10}{}}
\newlabel{fig:bsmumu_calib_reweighting@cref}{{[figure][4][3]3.4}{[1][15][]18}}
\@writefile{lof}{\contentsline {figure}{\numberline {3.5}{\ignorespaces Distributions of the nTracks variable in the 2016 samples for weighted and unweighted simulation, in green and red, and data for the \mbox  {\ensuremath  {{\ensuremath  {{\ensuremath  {\ensuremath  {B}\xspace  }}\xspace  ^+}}\xspace  \!\ensuremath  {\rightarrow }\xspace  {\ensuremath  {{\ensuremath  {J}\xspace  \mskip -3mu/\mskip -2mu\ensuremath  {\psi }\xspace  \mskip 2mu}}}\xspace  {\ensuremath  {{\ensuremath  {\ensuremath  {K}\xspace  }}\xspace  ^+}}\xspace  }}\xspace  .\relax }}{19}{figure.caption.11}\protected@file@percent }
\newlabel{fig:nTracks_discrepancy}{{3.5}{19}{Distributions of the nTracks variable in the 2016 samples for weighted and unweighted simulation, in green and red, and data for the \BuToJpsiK .\relax }{figure.caption.11}{}}
\newlabel{fig:nTracks_discrepancy@cref}{{[figure][5][3]3.5}{[1][16][]19}}
\@writefile{lof}{\contentsline {figure}{\numberline {3.6}{\ignorespaces Distribution of the training variables for the BDT for the \mbox  {\ensuremath  {{\ensuremath  {{\ensuremath  {\ensuremath  {B}\xspace  }}\xspace  ^+}}\xspace  \!\ensuremath  {\rightarrow }\xspace  {\ensuremath  {{\ensuremath  {J}\xspace  \mskip -3mu/\mskip -2mu\ensuremath  {\psi }\xspace  \mskip 2mu}}}\xspace  {\ensuremath  {{\ensuremath  {\ensuremath  {K}\xspace  }}\xspace  ^+}}\xspace  }}\xspace  data in blue and the \mbox  {\ensuremath  {{\ensuremath  {{\ensuremath  {\ensuremath  {B}\xspace  }}\xspace  ^0_{\ensuremath  {\ensuremath  {s}\xspace  }}\xspace  }}\xspace  \!\ensuremath  {\rightarrow }\xspace  {\ensuremath  {\ensuremath  {\mu }\xspace  ^+}}\xspace  {\ensuremath  {\ensuremath  {\mu }\xspace  ^-}}\xspace  }}\xspace  and \mbox  {\ensuremath  {{\ensuremath  {{\ensuremath  {\ensuremath  {B}\xspace  }}\xspace  ^+}}\xspace  \!\ensuremath  {\rightarrow }\xspace  {\ensuremath  {{\ensuremath  {J}\xspace  \mskip -3mu/\mskip -2mu\ensuremath  {\psi }\xspace  \mskip 2mu}}}\xspace  {\ensuremath  {{\ensuremath  {\ensuremath  {K}\xspace  }}\xspace  ^+}}\xspace  }}\xspace  reweighted simulation in green and red, respectively.\relax }}{19}{figure.caption.12}\protected@file@percent }
\newlabel{fig:JpsiK_BDT_training_variables}{{3.6}{19}{Distribution of the training variables for the BDT for the \BuToJpsiK data in blue and the \Bsmm and \BuToJpsiK reweighted simulation in green and red, respectively.\relax }{figure.caption.12}{}}
\newlabel{fig:JpsiK_BDT_training_variables@cref}{{[figure][6][3]3.6}{[1][17][]19}}
\@writefile{lof}{\contentsline {figure}{\numberline {3.7}{\ignorespaces BDT distribution for the \mbox  {\ensuremath  {{\ensuremath  {{\ensuremath  {\ensuremath  {B}\xspace  }}\xspace  ^+}}\xspace  \!\ensuremath  {\rightarrow }\xspace  {\ensuremath  {{\ensuremath  {J}\xspace  \mskip -3mu/\mskip -2mu\ensuremath  {\psi }\xspace  \mskip 2mu}}}\xspace  {\ensuremath  {{\ensuremath  {\ensuremath  {K}\xspace  }}\xspace  ^+}}\xspace  }}\xspace  data in blue and the \mbox  {\ensuremath  {{\ensuremath  {{\ensuremath  {\ensuremath  {B}\xspace  }}\xspace  ^0_{\ensuremath  {\ensuremath  {s}\xspace  }}\xspace  }}\xspace  \!\ensuremath  {\rightarrow }\xspace  {\ensuremath  {\ensuremath  {\mu }\xspace  ^+}}\xspace  {\ensuremath  {\ensuremath  {\mu }\xspace  ^-}}\xspace  }}\xspace  and \mbox  {\ensuremath  {{\ensuremath  {{\ensuremath  {\ensuremath  {B}\xspace  }}\xspace  ^+}}\xspace  \!\ensuremath  {\rightarrow }\xspace  {\ensuremath  {{\ensuremath  {J}\xspace  \mskip -3mu/\mskip -2mu\ensuremath  {\psi }\xspace  \mskip 2mu}}}\xspace  {\ensuremath  {{\ensuremath  {\ensuremath  {K}\xspace  }}\xspace  ^+}}\xspace  }}\xspace  reweighted simulation in green and red, respectively.\relax }}{20}{figure.caption.13}\protected@file@percent }
\newlabel{fig:JpsiK_BDT_dist}{{3.7}{20}{BDT distribution for the \BuToJpsiK data in blue and the \Bsmm and \BuToJpsiK reweighted simulation in green and red, respectively.\relax }{figure.caption.13}{}}
\newlabel{fig:JpsiK_BDT_dist@cref}{{[figure][7][3]3.7}{[1][20][]20}}
\@writefile{toc}{\contentsline {subsection}{\numberline {3.2.3}Final results}{20}{subsection.3.2.3}\protected@file@percent }
\@writefile{toc}{\contentsline {subsection}{\numberline {3.2.4}Cross-check}{20}{subsection.3.2.4}\protected@file@percent }
\@writefile{lot}{\contentsline {table}{\numberline {3.5}{\ignorespaces Relative yields per BDT bin for \mbox  {\ensuremath  {{\ensuremath  {{\ensuremath  {\ensuremath  {B}\xspace  }}\xspace  ^0_{\ensuremath  {\ensuremath  {s}\xspace  }}\xspace  }}\xspace  \!\ensuremath  {\rightarrow }\xspace  {\ensuremath  {\ensuremath  {\mu }\xspace  ^+}}\xspace  {\ensuremath  {\ensuremath  {\mu }\xspace  ^-}}\xspace  }}\xspace  (top) and \mbox  {\ensuremath  {{\ensuremath  {{\ensuremath  {\ensuremath  {B}\xspace  }}\xspace  ^0}}\xspace  \!\ensuremath  {\rightarrow }\xspace  {\ensuremath  {\ensuremath  {\mu }\xspace  ^+}}\xspace  {\ensuremath  {\ensuremath  {\mu }\xspace  ^-}}\xspace  }}\xspace  (bottom).\relax }}{21}{table.caption.14}\protected@file@percent }
\newlabel{tab:bmm_calibration_bsmm_bdmm}{{3.5}{21}{Relative yields per BDT bin for \Bsmm (top) and \Bdmm (bottom).\relax }{table.caption.14}{}}
\newlabel{tab:bmm_calibration_bsmm_bdmm@cref}{{[table][5][3]3.5}{[1][20][]21}}
\@writefile{toc}{\contentsline {section}{\numberline {3.3}Corrections to the relative yields per BDT bin}{21}{section.3.3}\protected@file@percent }
\newlabel{eq:full_bdt_calib}{{3.6}{21}{Corrections to the relative yields per BDT bin}{equation.3.3.6}{}}
\newlabel{eq:full_bdt_calib@cref}{{[equation][6][3]3.6}{[1][21][]21}}
\newlabel{fig:BdKPi_data_MC}{{3.8a}{22}{\BdToKpi and \Bdmm calibration.\relax }{figure.caption.15}{}}
\newlabel{fig:BdKPi_data_MC@cref}{{[subfigure][1][3,8]3.8a}{[1][20][]22}}
\newlabel{sub@fig:BdKPi_data_MC}{{a}{22}{\BdToKpi and \Bdmm calibration.\relax }{figure.caption.15}{}}
\newlabel{sub@fig:BdKPi_data_MC@cref}{{[subfigure][1][3,8]3.8a}{[1][20][]22}}
\newlabel{fig:BsKK_data_MC}{{3.8b}{22}{\BsToKK and \Bsmm calibration.\relax }{figure.caption.15}{}}
\newlabel{fig:BsKK_data_MC@cref}{{[subfigure][2][3,8]3.8b}{[1][20][]22}}
\newlabel{sub@fig:BsKK_data_MC}{{b}{22}{\BsToKK and \Bsmm calibration.\relax }{figure.caption.15}{}}
\newlabel{sub@fig:BsKK_data_MC@cref}{{[subfigure][2][3,8]3.8b}{[1][20][]22}}
\@writefile{lof}{\contentsline {figure}{\numberline {3.8}{\ignorespaces Cross-check of the methods developed for the \mbox  {\ensuremath  {{\ensuremath  {{\ensuremath  {\ensuremath  {B}\xspace  }}\xspace  _{({\ensuremath  {\ensuremath  {s}\xspace  }}\xspace  )}^0}}\xspace  \!\ensuremath  {\rightarrow }\xspace  {\ensuremath  {\ensuremath  {\mu }\xspace  ^+}}\xspace  {\ensuremath  {\ensuremath  {\mu }\xspace  ^-}}\xspace  }}\xspace  calibration using \mbox  {\ensuremath  {{\ensuremath  {\ensuremath  {B}\xspace  }}\xspace  \!\ensuremath  {\rightarrow }\xspace  \ensuremath  {h}\xspace  ^+ \ensuremath  {h}\xspace  '^-}}\xspace  .\relax }}{22}{figure.caption.15}\protected@file@percent }
\@writefile{lof}{\contentsline {figure}{\numberline {3.9}{\ignorespaces Muonic relative trigger efficiencies per BDT bin for 2016 and for the \mbox  {\ensuremath  {{\ensuremath  {{\ensuremath  {\ensuremath  {B}\xspace  }}\xspace  ^0_{\ensuremath  {\ensuremath  {s}\xspace  }}\xspace  }}\xspace  \!\ensuremath  {\rightarrow }\xspace  {\ensuremath  {\ensuremath  {\mu }\xspace  ^+}}\xspace  {\ensuremath  {\ensuremath  {\mu }\xspace  ^-}}\xspace  }}\xspace  decay obtained from different methods.\relax }}{23}{figure.caption.16}\protected@file@percent }
\newlabel{fig:TOSCorr}{{3.9}{23}{Muonic relative trigger efficiencies per BDT bin for 2016 and for the \Bsmm decay obtained from different methods.\relax }{figure.caption.16}{}}
\newlabel{fig:TOSCorr@cref}{{[figure][9][3]3.9}{[1][22][]23}}
\@writefile{toc}{\contentsline {chapter}{\numberline {4}Normalisation}{25}{chapter.4}\protected@file@percent }
\@writefile{lof}{\addvspace {10\p@ }}
\@writefile{lot}{\addvspace {10\p@ }}
\bibstyle{ieeetr}
\bibdata{refs}
\@writefile{toc}{\contentsline {chapter}{\numberline {5}Branching fraction measurement}{26}{chapter.5}\protected@file@percent }
\@writefile{lof}{\addvspace {10\p@ }}
\@writefile{lot}{\addvspace {10\p@ }}
\@writefile{toc}{\contentsline {chapter}{References}{26}{chapter.5}\protected@file@percent }
\bibcite{Skwarnicki:1986xj}{1}
\bibcite{Anderlini:2202412}{2}
\gdef \@abspage@last{27}
