{
  "18": {
    "1": [
      0.30444933744989894,
      0.0013775982545943175
    ],
    "2": [
      0.1650765547078517,
      0.0014324239998706734
    ],
    "3": [
      0.1010093083523869,
      0.001312861557533245
    ],
    "4": [
      0.0950573703785414,
      0.0015177685330025742
    ],
    "5": [
      0.3344074291113211,
      0.003897190164114006
    ]
  }
}