{
  "16": {
    "1": [
      0.31925510760953674,
      0.0017859231356962058
    ],
    "2": [
      0.16773813975433619,
      0.0016361188667735553
    ],
    "3": [
      0.10216969216454741,
      0.0014701710263854847
    ],
    "4": [
      0.09369724313068595,
      0.001759470405246341
    ],
    "5": [
      0.08593070611845113,
      0.0018348004598523057
    ],
    "6": [
      0.07657536337415244,
      0.0018401823498473296
    ],
    "7": [
      0.07803716127453363,
      0.002076562808431581
    ],
    "8": [
      0.07659658657375651,
      0.0021159037128013224
    ]
  }
}