{
  "11": {
    "1": [
      0.2927518873005299,
      0.001892658598374381
    ],
    "2": [
      0.16257067385546298,
      0.0016479392032581906
    ],
    "3": [
      0.10444751368659992,
      0.001432872033878644
    ],
    "4": [
      0.09583808107767641,
      0.001599661944031862
    ],
    "5": [
      0.09244104844916098,
      0.0017246866704794003
    ],
    "6": [
      0.08522611985635219,
      0.001760561518865987
    ],
    "7": [
      0.08465957082290793,
      0.0018826447682001649
    ],
    "8": [
      0.08206510495130967,
      0.0018050285658258313
    ]
  }
}