{
  "15": {
    "0": [
      364634.1678466797,
      603.8494579335811
    ],
    "1": [
      113725.04296875,
      337.23143828645334
    ],
    "2": [
      61546.06298828125,
      248.0847899172403
    ],
    "3": [
      37396.2861328125,
      193.3811938447286
    ],
    "4": [
      34635.322021484375,
      186.10567433983408
    ],
    "5": [
      31579.06982421875,
      177.7050078760268
    ],
    "6": [
      28519.2724609375,
      168.87650061787016
    ],
    "7": [
      28542.499267578125,
      168.9452552384296
    ],
    "8": [
      28690.612182617188,
      169.38303392789135
    ]
  }
}