{
  "15": {
    "1": [
      0.31018591652454125,
      0.0015790270789895824
    ],
    "2": [
      0.16912120557596141,
      0.0012420152040986798
    ],
    "3": [
      0.1035245142175219,
      0.001032805286582845
    ],
    "4": [
      0.09547861169292204,
      0.0011603125194661603
    ],
    "5": [
      0.08684651354034557,
      0.001243943697832602
    ],
    "6": [
      0.07796500537771446,
      0.0012859342950669176
    ],
    "7": [
      0.07825461709991326,
      0.0013831446900599107
    ],
    "8": [
      0.0786236159710801,
      0.0014998822618423838
    ]
  }
}