{
  "18": {
    "0": [
      363446.9208984375,
      602.8655910718719
    ],
    "1": [
      112335.2890625,
      335.16457011817346
    ],
    "2": [
      60920.10546875,
      246.81998595889678
    ],
    "3": [
      37442.7216796875,
      193.50121880672353
    ],
    "4": [
      34832.0009765625,
      186.6333329728709
    ],
    "5": [
      31682.361328125,
      177.9953969295976
    ],
    "6": [
      28569.068359375,
      169.02386920010736
    ],
    "7": [
      28851.802734375,
      169.85818418426297
    ],
    "8": [
      28813.5712890625,
      169.74560756927556
    ]
  }
}