{
  "17": {
    "1": [
      0.310912586324447,
      0.001740890976446918
    ],
    "2": [
      0.165998774729335,
      0.0016206918206638356
    ],
    "3": [
      0.10223608849649536,
      0.0014624053029523819
    ],
    "4": [
      0.09544014375720539,
      0.001775544599846235
    ],
    "5": [
      0.08678739843062118,
      0.0018463085021665525
    ],
    "6": [
      0.0785025322911013,
      0.0018749664076891384
    ],
    "7": [
      0.08082053033904088,
      0.002114773583935525
    ],
    "8": [
      0.07930194563175388,
      0.0021436438661469387
    ]
  }
}