{
  "11": {
    "0": [
      158580.0185546875,
      398.22106744205223
    ],
    "1": [
      46392.6708984375,
      215.38957936362078
    ],
    "2": [
      25776.369506835938,
      160.55020867889252
    ],
    "3": [
      16563.681091308594,
      128.69996538969463
    ],
    "4": [
      15199.047424316406,
      123.28441679432322
    ],
    "5": [
      14660.833618164062,
      121.0819293625769
    ],
    "6": [
      39987.416015625,
      199.96853756435036
    ]
  }
}