{
  "15": {
    "0": [
      355684.0861816406,
      596.3925604680533
    ],
    "1": [
      110506.609375,
      332.42534406239247
    ],
    "2": [
      59195.07666015625,
      243.3003836005119
    ],
    "3": [
      35596.452880859375,
      188.6702225600515
    ],
    "4": [
      33368.609375,
      182.67076770791763
    ],
    "5": [
      31500.679443359375,
      177.48430759748697
    ],
    "6": [
      28920.143310546875,
      170.05923471116432
    ],
    "7": [
      28646.939208984375,
      169.25406703823805
    ],
    "8": [
      27949.575927734375,
      167.18126667702447
    ]
  }
}