{
  "12": {
    "0": [
      165276.81396484375,
      406.542511878947
    ],
    "1": [
      48209.296875,
      219.56615603275475
    ],
    "2": [
      27011.5693359375,
      164.35196784930048
    ],
    "3": [
      17357.1943359375,
      131.74670521852718
    ],
    "4": [
      16379.14306640625,
      127.98102619687909
    ],
    "5": [
      15272.8994140625,
      123.58357258981673
    ],
    "6": [
      41046.7109375,
      202.59987891778218
    ]
  }
}