{
  "16": {
    "1": [
      0.3165471929440815,
      0.0012415541683911606
    ],
    "2": [
      0.16859600577736847,
      0.0010418202945210642
    ],
    "3": [
      0.10247587427247515,
      0.0009009233639322468
    ],
    "4": [
      0.09453071486698315,
      0.0010496406044953797
    ],
    "5": [
      0.08616005969317149,
      0.001164180600827041
    ],
    "6": [
      0.23169015244592026,
      0.0029289939584078092
    ]
  }
}