{
  "18": {
    "0": [
      359871.2734375,
      599.8927182734426
    ],
    "1": [
      109033.59765625,
      330.20235864731495
    ],
    "2": [
      59750.7890625,
      244.43974525944017
    ],
    "3": [
      36695.80859375,
      191.5615008130548
    ],
    "4": [
      34378.15234375,
      185.41346322139069
    ],
    "5": [
      120012.92578125,
      346.4288177696105
    ]
  }
}