{
  "17": {
    "1": [
      0.3123298909093524,
      0.001504158350165909
    ],
    "2": [
      0.16460199958675686,
      0.0010892479140282674
    ],
    "3": [
      0.10102692963639605,
      0.0008693283588665862
    ],
    "4": [
      0.09472399302966143,
      0.000943656965591772
    ],
    "5": [
      0.08710143916280101,
      0.0009788849074469708
    ],
    "6": [
      0.07925669299435431,
      0.0009878969327799536
    ],
    "7": [
      0.08134020920244898,
      0.0010963739855687552
    ],
    "8": [
      0.07961884547822891,
      0.0012142392151224426
    ]
  }
}