{
  "15": {
    "1": [
      0.3118747068982658,
      0.0015798430037565455
    ],
    "2": [
      0.16878129074798673,
      0.0016523650202954483
    ],
    "3": [
      0.1025539754306488,
      0.0015193557603873497
    ],
    "4": [
      0.09498243203166394,
      0.0017794772109334994
    ],
    "5": [
      0.08660109223736152,
      0.0018920593132973646
    ],
    "6": [
      0.2352065026540732,
      0.004499152417023812
    ]
  }
}