{
  "11": {
    "1": [
      0.9908401939099415,
      0.004059797144499711
    ],
    "2": [
      0.9932558067621845,
      0.001588090824359085
    ],
    "3": [
      0.9980612024654951,
      0.0002374915784334541
    ],
    "4": [
      1.003092631698946,
      0.0009071077331971401
    ],
    "5": [
      1.005524809177963,
      0.001709459648466722
    ],
    "6": [
      1.0102756559563424,
      0.003990787774889313
    ]
  }
}