{
  "11": {
    "1": [
      0.2923120903334188,
      0.0017813396786001455,
      0.003390585973750968,
      [
        -0.00014304795960173866,
        0.0033875670512405476
      ]
    ],
    "2": [
      0.16611397168231165,
      0.001542474640057799,
      0.0007637345016315587,
      [
        3.914343843974821e-06,
        -0.0007637244705354651
      ]
    ],
    "3": [
      0.10408407581559397,
      0.0013006502076605855,
      0.0011448738777386006,
      [
        2.189876269022284e-05,
        -0.001144664422492836
      ]
    ],
    "4": [
      0.0968457577466944,
      0.0014481539941300873,
      0.0009279654497330803,
      [
        2.432498186416554e-05,
        -0.0009276465766420022
      ]
    ],
    "5": [
      0.09011582781168294,
      0.0014695948737227704,
      0.0006644971657565202,
      [
        2.6204111083547033e-05,
        -0.0006639802917713516
      ]
    ],
    "6": [
      0.08550056821328576,
      0.0015489116556548414,
      8.931004980658985e-05,
      [
        2.8760945983211106e-05,
        8.45523091500544e-05
      ]
    ],
    "7": [
      0.08335763959393842,
      0.0016262630364038575,
      3.8853794388419475e-05,
      [
        2.2737959192165036e-05,
        -3.150559553719012e-05
      ]
    ],
    "8": [
      0.08167006880307405,
      0.0016407234880460688,
      6.131758015427058e-05,
      [
        1.5206854944480042e-05,
        5.9401996588270833e-05
      ]
    ]
  }
}