{
  "17": {
    "1": [
      0.30815046964503995,
      0.001623657359291866,
      0.0011503313137867343,
      [
        -0.00015228922147147994,
        0.0011402061763128302
      ]
    ],
    "2": [
      0.16360275983450667,
      0.0013940386657442755,
      0.0008757716348510591,
      [
        7.700419460077157e-06,
        -0.0008757377803599864
      ]
    ],
    "3": [
      0.10060867442875096,
      0.0011937306567981454,
      5.033464375773953e-05,
      [
        2.246363253403938e-05,
        4.5043995999402564e-05
      ]
    ],
    "4": [
      0.09399338260838401,
      0.0013686924376380809,
      0.00030295197325671364,
      [
        2.5692957700496066e-05,
        -0.0003018605141861669
      ]
    ],
    "5": [
      0.08752631010252884,
      0.001389411471942295,
      0.00018799597276589493,
      [
        2.6904519212847533e-05,
        -0.0001860608304348893
      ]
    ],
    "6": [
      0.08022818330459369,
      0.001399067042838694,
      3.317616242644887e-05,
      [
        2.8753826542715633e-05,
        -1.6549175583621678e-05
      ]
    ],
    "7": [
      0.08231724794398743,
      0.0015981714906318197,
      2.9307151155084423e-05,
      [
        2.376485022205499e-05,
        -1.715053943029954e-05
      ]
    ],
    "8": [
      0.08357297213220845,
      0.0016678092860303948,
      0.00021278955219797692,
      [
        1.7009015799290816e-05,
        0.00021210866768275882
      ]
    ]
  }
}