{
  "16": {
    "1": [
      0.31305816235414297,
      0.0011764166742803481,
      0.0007548007723353289,
      [
        -0.00015035228151943913,
        0.000739674521232081
      ]
    ],
    "2": [
      0.16485021698464042,
      0.001206488787150905,
      0.0002249101515865133,
      [
        9.367372586083222e-06,
        -0.00022471499419821073
      ]
    ],
    "3": [
      0.09947772110313423,
      0.0010997314831572376,
      0.0005393438798818851,
      [
        2.334632404496495e-05,
        -0.0005388383523095147
      ]
    ],
    "4": [
      0.0935367191321185,
      0.0012752734324961703,
      0.0006357175574677326,
      [
        2.6522573417009365e-05,
        -0.0006351640465045855
      ]
    ],
    "5": [
      0.32907718042596384,
      0.0033143437938672016,
      0.0006653116821390925,
      [
        9.11160114713816e-05,
        0.0006590428717802022
      ]
    ]
  }
}