{
  "18": {
    "1": [
      0.3135801727079517,
      0.001504333247748269,
      0.0010878051785990588,
      [
        -0.0001544696886778274,
        0.0010767818822151054
      ]
    ],
    "2": [
      0.1683752392202917,
      0.0015298709848361582,
      0.000965411766712054,
      [
        8.131177260700673e-06,
        -0.0009653775236986017
      ]
    ],
    "3": [
      0.10339950141863442,
      0.0013958616991436503,
      0.0005110317596809475,
      [
        2.3258740196138716e-05,
        -0.0005105021943215271
      ]
    ],
    "4": [
      0.09278881463649034,
      0.0015839498593008528,
      0.0004514186092018449,
      [
        2.5477154310657446e-05,
        -0.00045069909622935667
      ]
    ],
    "5": [
      0.08649171590067208,
      0.0016799918272524565,
      0.00023829689391295216,
      [
        2.6708673020889306e-05,
        -0.00023679538938506384
      ]
    ],
    "6": [
      0.23536455611595974,
      0.003972479724798178,
      0.0010889025779416439,
      [
        7.089394388945514e-05,
        0.0010865923214194717
      ]
    ]
  }
}