{
  "11": {
    "0": [
      0.47897939585,
      0.0134335904322,
      0.000923104756104
    ],
    "1": [
      0.610876452212,
      0.0341675172633,
      5.7195503147e-05
    ],
    "2": [
      0.55569984468,
      0.0411705958118,
      0.00101897473745
    ],
    "3": [
      0.510167999157,
      0.0459741929845,
      0.0038773459348
    ],
    "4": [
      0.466508813209,
      0.04292881151,
      0.00212887320024
    ],
    "5": [
      0.447606020529,
      0.0405546393195,
      0.00202576990339
    ],
    "6": [
      0.400031149345,
      0.0357602422583,
      0.00143190980187
    ],
    "7": [
      0.373517171101,
      0.0322649598411,
      0.00274941279504
    ],
    "8": [
      0.364276792189,
      0.030026897335,
      0.000808826296594
    ]
  }
}