{
  "16": {
    "0": [
      942471.0649414062,
      970.8094895196515
    ],
    "1": [
      294263.93359375,
      542.4609973018797
    ],
    "2": [
      154758.9326171875,
      393.39411868657555
    ],
    "3": [
      95357.77880859375,
      308.800548588557
    ],
    "4": [
      89676.72607421875,
      299.4607254285923
    ],
    "5": [
      84153.09423828125,
      290.0915273465967
    ],
    "6": [
      224260.599609375,
      473.5616112074278
    ]
  }
}