{
  "16": {
    "0": [
      942728.15625,
      970.9418912839224
    ],
    "1": [
      294246.42578125,
      542.4448596689344
    ],
    "2": [
      154749.71484375,
      393.382402814043
    ],
    "3": [
      95352.10693359375,
      308.7913647328787
    ],
    "4": [
      89671.39697265625,
      299.4518274658818
    ],
    "5": [
      308708.51171875,
      555.6154350976492
    ]
  }
}