{
  "15": {
    "1": [
      0.3228085643897642,
      0.0011807660408513177
    ],
    "2": [
      0.17006754078636674,
      0.0010644461876673777
    ],
    "3": [
      0.10274046772853103,
      0.0009468650357963258
    ],
    "4": [
      0.09383090459682933,
      0.00111305365877191
    ],
    "5": [
      0.31055252249850873,
      0.003306430981599895
    ]
  }
}