{
  "16": {
    "1": [
      0.3266449139822384,
      0.0011684020997618828
    ],
    "2": [
      0.16974236442440882,
      0.0010253146762014397
    ],
    "3": [
      0.10340986397748078,
      0.0009169139474850401
    ],
    "4": [
      0.0944459116889368,
      0.0010920570428935817
    ],
    "5": [
      0.08495597077699797,
      0.0012046671525007423
    ],
    "6": [
      0.22080097514993724,
      0.003019846314760133
    ]
  }
}