{
  "11": {
    "0": [
      340041.5310058594,
      583.1308009408004
    ],
    "1": [
      98782.46826171875,
      314.2967837279261
    ],
    "2": [
      55705.9775390625,
      236.02113790731224
    ],
    "3": [
      35622.2607421875,
      188.73860427105924
    ],
    "4": [
      33138.57421875,
      182.04003465927488
    ],
    "5": [
      116792.25024414062,
      341.7488116206706
    ]
  }
}