{
  "18": {
    "0": [
      951760.2807617188,
      975.5820215449436
    ],
    "1": [
      282421.58984375,
      531.4335234474298
    ],
    "2": [
      155984.6650390625,
      394.94893978723695
    ],
    "3": [
      97465.2744140625,
      312.19428952827195
    ],
    "4": [
      91586.75146484375,
      302.633031020812
    ],
    "5": [
      324302.0,
      569.4751970015902
    ]
  }
}