{
  "12": {
    "0": [
      2379701.498046875,
      1542.6281139817447
    ],
    "1": [
      726873.375,
      852.5686922471409
    ],
    "2": [
      386442.9296875,
      621.6453407591019
    ],
    "3": [
      247028.421875,
      497.01953872559176
    ],
    "4": [
      229798.982421875,
      479.3735312070067
    ],
    "5": [
      215335.470703125,
      464.04253113602095
    ],
    "6": [
      200094.3125,
      447.31902765252454
    ],
    "7": [
      196845.3212890625,
      443.67253835352767
    ],
    "8": [
      177282.6845703125,
      421.04950370510176
    ]
  }
}