{
  "18": {
    "0": [
      951545.8178710938,
      975.4720999962499
    ],
    "1": [
      282271.291015625,
      531.292095758656
    ],
    "2": [
      155986.111328125,
      394.9507707653259
    ],
    "3": [
      97483.3349609375,
      312.2232133601496
    ],
    "4": [
      91608.32275390625,
      302.66866827259514
    ],
    "5": [
      85245.58203125,
      291.9684606789747
    ],
    "6": [
      238951.17578125,
      488.82632476294685
    ]
  }
}