{
  "17": {
    "0": [
      943949.646484375,
      971.5707110058305
    ],
    "1": [
      289584.0390625,
      538.1301320893488
    ],
    "2": [
      155088.1484375,
      393.81232641640355
    ],
    "3": [
      96058.4453125,
      309.9329690634735
    ],
    "4": [
      89480.021484375,
      299.1321137630913
    ],
    "5": [
      313738.9921875,
      560.1240864196968
    ]
  }
}