{
  "15": {
    "1": [
      0.30777633376773134,
      0.0012496769567278937
    ],
    "2": [
      0.1641208332015031,
      0.0012696218901809776
    ],
    "3": [
      0.10003973180459565,
      0.00114187136125851
    ],
    "4": [
      0.09365973515562534,
      0.001313449405756214
    ],
    "5": [
      0.33440336607054455,
      0.0034216676595977998
    ]
  }
}