{
  "15": {
    "0": [
      497333.4736328125,
      705.2187416914078
    ],
    "1": [
      161709.861328125,
      402.13164676275477
    ],
    "2": [
      84177.4638671875,
      290.13352765095505
    ],
    "3": [
      50722.63916015625,
      225.21687139323345
    ],
    "4": [
      46223.559326171875,
      214.996649569643
    ],
    "5": [
      42397.477783203125,
      205.90647824486516
    ],
    "6": [
      112102.47216796875,
      334.81707269488027
    ]
  }
}