{
  "16": {
    "1": [
      0.3284238602753569,
      0.0016193492952417592
    ],
    "2": [
      0.16923779680564713,
      0.0014940301144612908
    ],
    "3": [
      0.10277431194543159,
      0.0013228441626740436
    ],
    "4": [
      0.09398771978709677,
      0.0015496402906958848
    ],
    "5": [
      0.0847354524156004,
      0.0016138185601169786
    ],
    "6": [
      0.07510526692238566,
      0.001587646217292112
    ],
    "7": [
      0.07486077921493539,
      0.0017546733426926815
    ],
    "8": [
      0.07087481263354616,
      0.0017351663585728368
    ]
  }
}