{
  "15": {
    "0": [
      468642.9141845703,
      684.5749879922362
    ],
    "1": [
      144225.2080078125,
      379.7699408955539
    ],
    "2": [
      76949.30810546875,
      277.39738301842135
    ],
    "3": [
      46912.7060546875,
      216.5934118450686
    ],
    "4": [
      43923.013427734375,
      209.5781797509807
    ],
    "5": [
      41978.4716796875,
      204.88648486341773
    ],
    "6": [
      39287.043701171875,
      198.20959538118197
    ],
    "7": [
      38949.3115234375,
      197.35579931544322
    ],
    "8": [
      36417.85168457031,
      190.83461867431262
    ]
  }
}