{
  "16": {
    "1": [
      0.3284840011461391,
      0.0011936387905681458
    ],
    "2": [
      0.16917717017067865,
      0.0013557722657023359
    ],
    "3": [
      0.1027193125383746,
      0.001259861431747114
    ],
    "4": [
      0.09393279274226682,
      0.0015018872161754876
    ],
    "5": [
      0.3056867234025408,
      0.00409282674454682
    ]
  }
}