{
  "12": {
    "0": [
      2380502.125,
      1542.8875931188247
    ],
    "1": [
      727255.65625,
      852.7928565894534
    ],
    "2": [
      386429.7421875,
      621.63473373638
    ],
    "3": [
      246976.484375,
      496.96728702702353
    ],
    "4": [
      229739.267578125,
      479.3112429081181
    ],
    "5": [
      215271.810546875,
      463.97393304675535
    ],
    "6": [
      574829.1640625,
      758.174890155629
    ]
  }
}