{
  "17": {
    "1": [
      0.3067558195629607,
      0.0014145198654288325
    ],
    "2": [
      0.1642845885939392,
      0.0010623765883805124
    ],
    "3": [
      0.10175453029883494,
      0.0008712547553120895
    ],
    "4": [
      0.09478601345924069,
      0.0009641631392989744
    ],
    "5": [
      0.0889652992312339,
      0.001020780394213696
    ],
    "6": [
      0.08124815544991354,
      0.0010449555301727039
    ],
    "7": [
      0.08253369205683425,
      0.0011563415204732857
    ],
    "8": [
      0.07967190134704273,
      0.0012663322655003788
    ]
  }
}