{
  "16": {
    "0": [
      226540.01981173936,
      5202.821686715251,
      18513.284834718772
    ],
    "1": [
      0.3381719138545326,
      0.019022032409399394,
      0.009369495117830645
    ],
    "2": [
      0.15459170984327514,
      0.005324926053835902,
      0.001782551685133028
    ],
    "3": [
      0.09916519017864359,
      0.004440385078938554,
      0.000635911302454203
    ],
    "4": [
      0.09069848779328592,
      0.004246119110964389,
      0.0007697173878743499
    ],
    "5": [
      0.08327893270038758,
      0.004172475540861083,
      0.0008600493964826003
    ],
    "6": [
      0.2204038761434401,
      0.006024980900648673,
      0.0042047929774913645
    ]
  }
}