{
  "17": {
    "0": [
      227747.5748508301,
      5306.344051275694,
      14879.296537938815
    ],
    "1": [
      75765.27178079418,
      3312.743252732642,
      5326.145082413757
    ],
    "2": [
      36819.488161247966,
      1405.5858328938998,
      2403.4224558739697
    ],
    "3": [
      23553.635662062527,
      1127.931053788391,
      1553.5901229448993
    ],
    "4": [
      20352.798176007127,
      1020.205402048717,
      1344.8342866463959
    ],
    "5": [
      18240.327088604372,
      957.2392710928584,
      1178.8913293475605
    ],
    "6": [
      15588.662000555853,
      886.1825558129697,
      1066.6131714470205
    ],
    "7": [
      17640.57289031209,
      928.1452828715354,
      1197.229802866007
    ],
    "8": [
      17155.251506065553,
      864.7576960727857,
      1169.5171674979526
    ]
  }
}