{
  "15": {
    "0": [
      34841.44367309577,
      1822.9316195356002,
      2028.5686862878445
    ],
    "1": [
      0.27631353430362465,
      0.054401050691520944,
      0.008406418754367408
    ],
    "2": [
      0.17908449864126522,
      0.012859188076236431,
      0.0026451673299417123
    ],
    "3": [
      0.09891657684094898,
      0.01016618474865325,
      0.002339302845767548
    ],
    "4": [
      0.10866221138922642,
      0.010284625434774541,
      0.004116041353830109
    ],
    "5": [
      0.07894967016126621,
      0.00904497113638924,
      0.0006753537202045196
    ],
    "6": [
      0.25291763639983245,
      0.014621236341131978,
      0.003995959251720606
    ]
  }
}