{
  "17": {
    "1": [
      0.3066890106382163,
      0.0011752563316667023,
      0.00128941898694228,
      [
        -0.00015317262299169299,
        0.0012802888234508258
      ]
    ],
    "2": [
      0.16344301061895927,
      0.0012978934385724649,
      0.000539477590090576,
      [
        9.931584139838412e-06,
        -0.0005393861639367559
      ]
    ],
    "3": [
      0.10069662509268301,
      0.0012017472172438882,
      0.0004058554223635336,
      [
        2.3408845233136022e-05,
        -0.00040517977470097555
      ]
    ],
    "4": [
      0.0944107757829334,
      0.0014401721477134114,
      0.000636556785686758,
      [
        2.6974513379948717e-05,
        -0.0006359849974895415
      ]
    ],
    "5": [
      0.33476057786720803,
      0.0038105058378935263,
      0.00031429267425168127,
      [
        9.285768023881147e-05,
        0.00030026211267647485
      ]
    ]
  }
}