{
  "15": {
    "1": [
      0.3055400281104222,
      0.0012874121793477725,
      0.0018337685055146453,
      [
        -0.00015275410120968447,
        0.0018273951724739335
      ]
    ],
    "2": [
      0.16290440927981328,
      0.0013545158126479512,
      0.0008546599969672893,
      [
        9.5211122088934e-06,
        -0.0008546069616136021
      ]
    ],
    "3": [
      0.09999911836180665,
      0.0012412485721331017,
      0.000641315386721033,
      [
        2.3074134926706624e-05,
        -0.0006409001556736682
      ]
    ],
    "4": [
      0.09362831178213346,
      0.0014248349734743454,
      0.0005457555452360121,
      [
        2.651968922853798e-05,
        -0.0005451108339036004
      ]
    ],
    "5": [
      0.33792813246582437,
      0.003809693495025219,
      0.00023287817964917176,
      [
        9.363916484550483e-05,
        0.00021322277871688167
      ]
    ]
  }
}