{
  "17": {
    "1": [
      0.3067781277680357,
      0.0016955707193180775,
      0.001411914497562359,
      [
        -0.000155597801436147,
        0.0014033146021527054
      ]
    ],
    "2": [
      0.16349049709370392,
      0.001478684565822681,
      0.00047379218916294145,
      [
        8.668368818909311e-06,
        -0.0004737128855053785
      ]
    ],
    "3": [
      0.10072588603940187,
      0.0012880814043695521,
      0.0003653995626058953,
      [
        2.2626475209439056e-05,
        -0.0003646983451733449
      ]
    ],
    "4": [
      0.09443820217773279,
      0.0015032765857232776,
      0.000598584589720617,
      [
        2.623919167321631e-05,
        -0.000598009210523831
      ]
    ],
    "5": [
      0.08815346348534449,
      0.0015174213528497639,
      3.8162559023046364e-05,
      [
        2.7378849984799336e-05,
        -2.6585324611472227e-05
      ]
    ],
    "6": [
      0.08198161254572013,
      0.0015692365494091873,
      0.00022039003095167137,
      [
        2.974017509280169e-05,
        0.0002183741919923876
      ]
    ],
    "7": [
      0.08293477332297451,
      0.0017630100773341983,
      5.331162490584608e-05,
      [
        2.416370724571404e-05,
        -4.7520991174901384e-05
      ]
    ],
    "8": [
      0.08149743756708659,
      0.0018170256157596892,
      0.00011242153524595273,
      [
        1.6781033411308877e-05,
        -0.00011116203715615114
      ]
    ]
  }
}