{
  "12": {
    "1": [
      0.30286882655108976,
      0.001436070820423866,
      0.0070835563164678515,
      [
        -0.0001601871615071193,
        0.007081744852920069
      ]
    ],
    "2": [
      0.16064660592347568,
      0.0014577082388236003,
      0.0006254344804488584,
      [
        8.202980686350392e-06,
        -0.0006253806844172538
      ]
    ],
    "3": [
      0.1029833290204619,
      0.0014069272380081207,
      0.0012175748584069323,
      [
        2.2872326785008945e-05,
        -0.0012173600094023546
      ]
    ],
    "4": [
      0.09570065844668632,
      0.0017164685182655588,
      0.0014004014599635355,
      [
        2.6397290214988378e-05,
        -0.0014001526460130365
      ]
    ],
    "5": [
      0.09017408453192509,
      0.0018697375034787398,
      0.0011706107165195116,
      [
        2.78863081384223e-05,
        -0.001170278515332454
      ]
    ],
    "6": [
      0.24762649552636126,
      0.004486756173897389,
      0.002669621904351862,
      [
        7.482825568236318e-05,
        -0.002668572997754942
      ]
    ]
  }
}