{
  "18": {
    "1": [
      0.29561868771186256,
      0.0011452021589705072,
      0.0009395081582722329,
      [
        -0.00014992918482137352,
        0.0009274679611711023
      ]
    ],
    "2": [
      0.16425435377127803,
      0.0012998626040132827,
      0.00021535608033866719,
      [
        8.520917054360977e-06,
        -0.00021518744227158604
      ]
    ],
    "3": [
      0.10194666227099006,
      0.0012168459157480599,
      0.0003813112968925832,
      [
        2.2791214873585375e-05,
        -0.00038062956488230104
      ]
    ],
    "4": [
      0.09584781025586397,
      0.0014549029983207948,
      0.00023000576499509917,
      [
        2.654310364164081e-05,
        -0.0002284690691976704
      ]
    ],
    "5": [
      0.3423324859900054,
      0.003906717657144503,
      0.00013828996162318623,
      [
        9.207394925181411e-05,
        -0.0001031818848195587
      ]
    ]
  }
}