{
  "16": {
    "1": [
      0.31314411966171435,
      0.0017263344949503827,
      0.002408337090125068,
      [
        -0.00015709118103190978,
        0.0024032082515907938
      ]
    ],
    "2": [
      0.16560697908385144,
      0.0016046511261646925,
      0.000526207174536726,
      [
        9.692873415900749e-06,
        -0.0005261178943344047
      ]
    ],
    "3": [
      0.10148673972237955,
      0.0014507358793919387,
      0.0008546171835324976,
      [
        2.3435080139064257e-05,
        -0.000854295807907246
      ]
    ],
    "4": [
      0.09431151123791444,
      0.0017478765889622542,
      0.000946394457834752,
      [
        2.6731236095256516e-05,
        -0.0009460168660426482
      ]
    ],
    "5": [
      0.0867189286913244,
      0.0018401228892343576,
      0.00029079823957394184,
      [
        2.7493039259807173e-05,
        -0.00028949568033316553
      ]
    ],
    "6": [
      0.07871617554589952,
      0.0018674417223544784,
      3.374755496672925e-05,
      [
        2.9031048849645358e-05,
        -1.7207430631036025e-05
      ]
    ],
    "7": [
      0.08019464380990708,
      0.0021237477413601617,
      2.4460286405471662e-05,
      [
        2.3821918410341092e-05,
        -5.55173975333445e-06
      ]
    ],
    "8": [
      0.07982090224700922,
      0.002184184266007272,
      0.00023608183508411383,
      [
        1.6885984861866876e-05,
        0.0002354771674110412
      ]
    ]
  }
}