{
	"Run1": {
		"1": [0.9819988215004883, 0.0014642126147643244], 
		"2": [0.9899720322470935, 0.0007847826266708368], 
		"3": [0.9971787471692353, 0.0005390067571130608], 
		"4": [1.0044326129825147, 0.000540847175507291], 
		"5": [1.0091212988200289, 0.0007192306760277563], 
		"6": [1.0145557143234605, 0.0010559742291062612], 
		"7": [1.0207240861347762, 0.0016266366169701465], 
		"8": [1.0262663878240734, 0.0023216518066249874]}, 




		"Run2": {
			"1": [0.9787374446828516, 0.002360412161358707], 
			"2": [0.9928112485416637, 0.0004762885844216489], 
			"3": [1.0014021168240015, 0.0005958207168752547], 
			"4": [1.005932780752627, 0.0010084515162284526], 
			"5": [1.0110768861371506, 0.0013525983390400428], 
			"6": [1.0161379793331309, 0.001687025222977993], 
			"7": [1.0219072749187057, 0.0018983269734070293], 
			"8": [1.027709878333054, 0.002073182058461607]}}