{
  "11": {
    "0": [
      0.03843882260108125,
      0.00035792787449100475,
      0.003036187006766687,
      [
        1.7979836509779412e-06,
        -5.0958065752469694e-05,
        -0.0004754182559588982,
        -0.002998301029708217,
        2.4195780101710085e-10
      ]
    ],
    "1": [
      0.03021266792360086,
      0.0005827906291863641,
      0.004074006493820006,
      [
        -1.1231907325014168e-06,
        -0.000562645174662136,
        -0.0008114368005602696,
        -0.003952534424423865,
        6.267105029378328e-10
      ]
    ],
    "2": [
      0.032917986731561676,
      0.000766509725967696,
      0.0031153308900890063,
      [
        3.527984554080321e-07,
        -0.0003700600873656826,
        -0.000609954307169161,
        -0.0030325398109803114,
        4.492409361178673e-10
      ]
    ],
    "3": [
      0.03524387454847068,
      0.0009670498533355723,
      0.0027901059875554187,
      [
        3.0633882567854265e-06,
        -9.686365332942093e-05,
        -0.0005037577823721606,
        -0.0027425403491667666,
        6.133614310899205e-10
      ]
    ],
    "4": [
      0.03644533525782899,
      0.0009997348362073258,
      0.00256053163684098,
      [
        1.3745662355429955e-06,
        -5.200432337142125e-06,
        -0.00039942491636130173,
        -0.002529180314948795,
        -5.8510557510160766e-12
      ]
    ],
    "5": [
      0.04012082297191275,
      0.0010646559967962344,
      0.0024654575072316676,
      [
        7.367256437337821e-07,
        0.00012875695462558068,
        -0.000249969257331048,
        -0.002449370775163537,
        -1.1846884584443274e-11
      ]
    ],
    "6": [
      0.05044938691193062,
      0.0006958513172152066,
      0.002684388205889362,
      [
        5.7031934680151775e-06,
        0.0006066813471059182,
        -0.0002167766142775196,
        -0.0026059265446436303,
        9.554257385246956e-11
      ]
    ]
  }
}