2011 & 2012 & 2015  
$[0, 0.25)$& $0.29231 \pm 0.00178 \pm 0.00339$ & $0.30815 \pm 0.00178 \pm 0.00679$ & $0.3233 \pm 0.0018 \pm 0.00182$ \ 
$[0.25, 0.4)$& $0.16611 \pm 0.00154 \pm 0.00076$ & $0.16426 \pm 0.00153 \pm 0.00053$ & $0.16992 \pm 0.00163 \pm 0.00044$ \ 
$[0.4, 0.5)$& $0.10408 \pm 0.0013 \pm 0.00114$ & $0.10428 \pm 0.00138 \pm 0.00122$ & $0.10208 \pm 0.00141 \pm 0.00088$ \ 
$[0.5, 0.6)$& $0.09685 \pm 0.00145 \pm 0.00093$ & $0.09602 \pm 0.00159 \pm 0.00144$ & $0.0926 \pm 0.0016 \pm 0.0006$ \ 
$[0.6, 0.7)$& $0.09012 \pm 0.00147 \pm 0.00066$ & $0.08948 \pm 0.00172 \pm 0.00124$ & $0.08516 \pm 0.00169 \pm 0.00031$ \ 
$[0.7, 0.8)$& $0.0855 \pm 0.00155 \pm 9e-05$ & $0.08197 \pm 0.00173 \pm 0.00087$ & $0.0761 \pm 0.00168 \pm 9e-05$ \ 
$[0.8, 0.9)$& $0.08336 \pm 0.00163 \pm 4e-05$ & $0.0813 \pm 0.00186 \pm 0.0006$ & $0.07584 \pm 0.00184 \pm 0.00037$ \ 
$[0.9, 1]$& $0.08167 \pm 0.00164 \pm 6e-05$ & $0.07455 \pm 0.00178 \pm 0.00089$ & $0.075 \pm 0.00189 \pm 0.00012$ \ 

 
2016 & 2017 & 2018  
$[0, 0.25)$& $0.3284 \pm 0.00165 \pm 0.00152$ & $0.31493 \pm 0.00163 \pm 0.00183$ & $0.3136 \pm 0.00176 \pm 0.0011$ \ 
$[0.25, 0.4)$& $0.17025 \pm 0.00151 \pm 0.0004$ & $0.1676 \pm 0.0015 \pm 0.00111$ & $0.16839 \pm 0.00162 \pm 0.00096$ \ 
$[0.4, 0.5)$& $0.10157 \pm 0.00134 \pm 0.00077$ & $0.10246 \pm 0.00133 \pm 0.00023$ & $0.10341 \pm 0.00144 \pm 0.00051$ \ 
$[0.5, 0.6)$& $0.09262 \pm 0.00154 \pm 0.00095$ & $0.09452 \pm 0.00156 \pm 0.00048$ & $0.09279 \pm 0.00162 \pm 0.00045$ \ 
$[0.6, 0.7)$& $0.08358 \pm 0.0016 \pm 0.00059$ & $0.08609 \pm 0.00164 \pm 0.00045$ & $0.0865 \pm 0.00171 \pm 0.00024$ \ 
$[0.7, 0.8)$& $0.07486 \pm 0.00159 \pm 0.0004$ & $0.07732 \pm 0.00165 \pm 3e-05$ & $0.07781 \pm 0.00171 \pm 0.00012$ \ 
$[0.8, 0.9)$& $0.0749 \pm 0.00176 \pm 0.00027$ & $0.07842 \pm 0.00185 \pm 8e-05$ & $0.0789 \pm 0.00188 \pm 0.00067$ \ 
$[0.9, 1]$& $0.07383 \pm 0.00178 \pm 0.00052$ & $0.07865 \pm 0.00189 \pm 0.00038$ & $0.0786 \pm 0.00195 \pm 0.00027$ \ 

 
