{
  "12": {
    "0": [
      34405.601959228516,
      185.4874711651127
    ],
    "1": [
      12707.65234375,
      112.72822336819648
    ],
    "2": [
      6186.48779296875,
      78.6542293393607
    ],
    "3": [
      3651.4521484375,
      60.42724673884704
    ],
    "4": [
      3366.1300048828125,
      58.018359205365435
    ],
    "5": [
      2992.097900390625,
      54.700072215588754
    ],
    "6": [
      2563.662353515625,
      50.63262143633909
    ],
    "7": [
      2010.1143798828125,
      44.83429914566316
    ],
    "8": [
      928.0050354003906,
      30.463175070901436
    ]
  }
}