{
  "11": {
    "1": [
      0.35454194411740253,
      0.004157838722061741
    ],
    "2": [
      0.18295535540886296,
      0.003424144630239459
    ],
    "3": [
      0.11029019720251483,
      0.002805995474794332
    ],
    "4": [
      0.10385590368237962,
      0.002793180410767924
    ],
    "5": [
      0.08853796342406502,
      0.002644116292330721
    ],
    "6": [
      0.159818636164775,
      0.0039047714990813128
    ]
  }
}