{
  "12": {
    "0": [
      34527.93017578125,
      185.81692650504488
    ],
    "1": [
      13029.368408203125,
      114.14625884453298
    ],
    "2": [
      6162.801513671875,
      78.50351274734065
    ],
    "3": [
      3609.0813598632812,
      60.07563033263389
    ],
    "4": [
      3341.9049682617188,
      57.80921179415716
    ],
    "5": [
      2977.7809143066406,
      54.56904721824123
    ],
    "6": [
      5406.993011474609,
      73.53225830528129
    ]
  }
}