{
  "18": {
    "0": [
      156156.81744384766,
      395.16682229641657
    ],
    "1": [
      57599.04345703125,
      239.99800719387494
    ],
    "2": [
      27748.89111328125,
      166.57998413159143
    ],
    "3": [
      16598.99462890625,
      128.83708561166017
    ],
    "4": [
      15267.80712890625,
      123.56296827490934
    ],
    "5": [
      13859.111267089844,
      117.72472665965228
    ],
    "6": [
      25082.969848632812,
      158.37603937664565
    ]
  }
}