{
  "16": {
    "1": [
      0.3868793696225881,
      0.0024295119880618763
    ],
    "2": [
      0.1790308949943602,
      0.0021101701122670275
    ],
    "3": [
      0.10478949167622684,
      0.0018048210667781822
    ],
    "4": [
      0.0968659499195198,
      0.001970975883970036
    ],
    "5": [
      0.08562185587677672,
      0.001845037845898373
    ],
    "6": [
      0.14681243791052837,
      0.002896604518440759
    ]
  }
}