{
  "15": {
    "1": [
      0.3791664613656672,
      0.0033402635677452935
    ],
    "2": [
      0.1802412828536431,
      0.0027942511330734006
    ],
    "3": [
      0.10983730218217376,
      0.0022985830139855166
    ],
    "4": [
      0.09835852622481933,
      0.002335355429461812
    ],
    "5": [
      0.08324140099917979,
      0.0022151798342999133
    ],
    "6": [
      0.07090468178594282,
      0.0020756109549634107
    ],
    "7": [
      0.05438784567205538,
      0.001738970753684152
    ],
    "8": [
      0.023862498916518655,
      0.0009846779169472254
    ]
  }
}