{
  "15": {
    "0": [
      38936.08898925781,
      197.3222972430075
    ],
    "1": [
      14745.68408203125,
      121.431808361859
    ],
    "2": [
      7009.535705566406,
      83.72296999967456
    ],
    "3": [
      4271.543487548828,
      65.35704619663306
    ],
    "4": [
      3825.1371154785156,
      61.84769288727362
    ],
    "5": [
      3237.236114501953,
      56.89671444382314
    ],
    "6": [
      5846.952484130859,
      76.46536787416156
    ]
  }
}