{
  "18": {
    "1": [
      0.3690181767349521,
      0.001928377103222655
    ],
    "2": [
      0.17768221020781658,
      0.001770469239945178
    ],
    "3": [
      0.1062681504928942,
      0.0015566604009529697
    ],
    "4": [
      0.09774096456155941,
      0.0017550393279350252
    ],
    "5": [
      0.08871954216740553,
      0.0018367090209750261
    ],
    "6": [
      0.16057095583537223,
      0.002904908550797531
    ]
  }
}