{
  "18": {
    "1": [
      0.36566055593594643,
      0.0018941152846867412
    ],
    "2": [
      0.17872973865127684,
      0.0015149381195485472
    ],
    "3": [
      0.10652720043412982,
      0.0012579798274128396
    ],
    "4": [
      0.09891049612040097,
      0.0013944226985210994
    ],
    "5": [
      0.09013410477738026,
      0.001479307390035966
    ],
    "6": [
      0.07463438158636926,
      0.0014481119161808037
    ],
    "7": [
      0.05950009943922683,
      0.001287897482794516
    ],
    "8": [
      0.0259034230552696,
      0.0006886970685300827
    ]
  }
}