{
  "16": {
    "0": [
      78206.16203308105,
      279.653646557811
    ],
    "1": [
      30275.766357421875,
      173.99932861198596
    ],
    "2": [
      14017.835693359375,
      118.39694123312213
    ],
    "3": [
      8206.30712890625,
      90.58866998088806
    ],
    "4": [
      7586.169769287109,
      87.0986209379179
    ],
    "5": [
      6705.807861328125,
      81.88899719332338
    ],
    "6": [
      5378.453964233398,
      73.3379435506164
    ],
    "7": [
      4169.894195556641,
      64.5747179285875
    ],
    "8": [
      1865.9270629882812,
      43.196377891997855
    ]
  }
}