{
  "12": {
    "0": [
      34521.6780090332,
      185.80010228477593
    ],
    "1": [
      13021.0380859375,
      114.10976332434267
    ],
    "2": [
      6162.3873291015625,
      78.50087470277998
    ],
    "3": [
      3609.4668579101562,
      60.07883868643065
    ],
    "4": [
      3342.4323120117188,
      57.81377268447129
    ],
    "5": [
      2978.3494567871094,
      54.57425635578656
    ],
    "6": [
      5408.003967285156,
      73.53913221737905
    ]
  }
}